,mean,se_mean,sd,2.5%,25%,50%,75%,97.5%,n_eff,Rhat
alpha,1.7499606138886201,0.021294406040324936,1.073404630226262,-0.3177741215028774,1.0203957536631263,1.7184150914672869,2.481206980919942,3.8519985294201273,2540.9485232805696,1.0019222469351876
beta[1],0.8241527124197217,0.009218309158322422,0.6681890705241238,-0.4876937291664566,0.3706173799719353,0.8165892518135409,1.268677305842727,2.1209435962275465,5254.074142764423,0.9998296702717124
beta[2],0.37976797767215575,0.010412850765570188,0.8969712883498586,-1.2818481904066523,-0.2497243518035615,0.36721369993429087,0.9892783428446197,2.201393033280479,7420.237310859883,0.9994653465118732
sigma,0.49787485514550334,0.007086255045361264,0.38070664790216086,0.01910130443930888,0.20359942498587513,0.4185138545541684,0.7120544001069187,1.400148335875111,2886.3391666699827,0.9995978189802388
lp__,-424.9389136564187,0.4999276690477244,20.059293522107275,-463.7491178763835,-438.3894274581367,-425.09273917217354,-411.4835016532148,-384.63303337649836,1609.966794457838,1.0012399703486419
