Microtubule Angle,Condition
151,siScramble
136.5,siScramble
143,siScramble
150.33,siScramble
143.29,siScramble
153,siScramble
142,siScramble
147,siScramble
160,siMCRS1
156,siMCRS1
155,siMCRS1
149,siMCRS1
164,siMCRS1
160,siMCRS1
142,siMCRS1
152,siMCRS1
156,siMCRS1
165,siMCRS1
169,siMCRS1
144,siMCRS1
165,siMCRS1
156,siMCRS1
175,siMCRS1
160,siMCRS1
