,mean,se_mean,sd,2.5%,25%,50%,75%,97.5%,n_eff,Rhat
pred_alpha[1],0.1052220322961342,0.0034601288888150244,0.18771283304372663,-0.3034347041895832,-0.0077809443075826865,0.11370943927246983,0.21860742975448424,0.4777760627669636,2943.088866004059,0.9993768827908307
pred_alpha[2],0.1015785231181188,0.003340315470575459,0.18121292598907818,-0.29292771144749613,-0.007511514594245495,0.10977203779318431,0.21103773964955286,0.46123217522040605,2943.088866004059,0.9993768827908307
pred_alpha[3],0.0979350139401034,0.003220502052335895,0.17471301893442975,-0.2824207187054091,-0.007242084880908304,0.10583463631389879,0.20346804954462147,0.4446882876738485,2943.088866004059,0.9993768827908307
pred_alpha[4],0.09429150476208802,0.003100688634096328,0.16821311187978127,-0.271913725963322,-0.006972655167571111,0.10189723483461327,0.19589835943969006,0.42814440012729094,2943.088866004061,0.9993768827908307
pred_alpha[5],0.414595212137283,0.008398862643658926,0.4826438677604684,-0.5883874525896104,0.10231152905055779,0.42873452959063674,0.7401461313782529,1.3529403109152927,3302.2703689321906,1.0003391601272338
pred_alpha[6],0.43035538512133037,0.008057164915619286,0.46957749322333664,-0.5250589332478854,0.13216047415200735,0.4501381070241604,0.7477264974175839,1.3269001279289763,3396.6440710527795,1.000553689571079
pred_alpha[7],0.44503862733525007,0.00786488679176584,0.4632332969949172,-0.49670120335278395,0.1468110275056334,0.45600627893383594,0.7562955438662986,1.3271655993526,3469.0821636449436,1.0007684689901433
pred_alpha[8],0.45859711803349507,0.00775323071599659,0.45865273895422376,-0.4661662235543922,0.16736489804619148,0.4686828947401185,0.7626686821528945,1.3413767965299481,3499.4723580239647,1.0009947559221242
pred_alpha[9],0.47098303647051865,0.007698001113559068,0.45441983192237817,-0.4347905179432674,0.1795029522083465,0.4823191812750616,0.7643354078345712,1.3487831884382322,3484.645590284264,1.0012289285849862
pred_alpha[10],0.48214856190077393,0.007683571345235657,0.45071732321093566,-0.42444994512676926,0.19723843952348585,0.4964932412638107,0.7757649769113887,1.353796607441921,3440.9807601229527,1.0014526376801236
pred_alpha[11],0.49204587357871393,0.007677495594138621,0.44798770166083446,-0.42071061288160705,0.20718928482523297,0.5066368677852429,0.7850472416548524,1.3534508279788915,3404.811175039216,1.0016388969636576
pred_alpha[12],0.5005876149064276,0.007763468074723789,0.44630166031600604,-0.411829211163803,0.21698125713282002,0.5178272467887677,0.7958145761522778,1.3677925927959347,3304.8021320124603,1.0017635179387776
pred_alpha[13],0.5074524642590112,0.007875480589298243,0.44537332531830004,-0.4125552092692372,0.22598309820742649,0.5228116551311803,0.7991329442917794,1.374417828988673,3198.1164540852674,1.001827216697976
pred_alpha[14],0.5122333518080069,0.007998042879223389,0.44503164936669887,-0.40850897733648434,0.23049722700547753,0.527576493866827,0.8039205628030139,1.366609734975542,3096.0954375362116,1.0018410997900424
pred_alpha[15],0.5145230782157135,0.008096023139943174,0.4451577068715272,-0.3981867642928556,0.23169994100727911,0.5319700250273969,0.8013045476075942,1.3765280735185788,3023.3213542469275,1.0018187516893091
pred_alpha[16],0.513914444144431,0.008156591331653102,0.4455416830601694,-0.3902628439843052,0.228257614902639,0.5338605637046901,0.8024801663362,1.3857105630978896,2983.728312022685,1.0017764151359756
pred_alpha[17],0.5100002502564581,0.008194837041841733,0.44583821655061545,-0.39816786866074627,0.22526600810876324,0.5310691338151339,0.79676603254037,1.3698000518270779,2959.878893881198,1.0017323896794426
pred_alpha[18],0.5023744992395878,0.00820370325887322,0.4456201392713627,-0.4035624325776696,0.22195494360712056,0.5242228287210999,0.7906360625435788,1.3592751726853776,2950.5958983363835,1.0017058268734478
pred_alpha[19],0.4908191656080736,0.008180054649131437,0.44464080500815684,-0.4144940111028456,0.214216379082827,0.5112421184766704,0.7768470137118204,1.3355337073306288,2954.6512131478403,1.0017088701758545
pred_alpha[20],0.47550674995791253,0.008174663206031803,0.4430768369583306,-0.4283807080780645,0.20202061380020658,0.4987624088881712,0.7602717003970401,1.3285042791339023,2937.7738156175947,1.0017383134975661
pred_alpha[21],0.4566583914796071,0.008177768097843145,0.44121285367582874,-0.4334715325775175,0.18230067608421105,0.47900866512664364,0.7382686512100014,1.301662945272946,2910.896276028657,1.0017877660153414
pred_alpha[22],0.4344952293636594,0.008153085989288439,0.4392779734934421,-0.4503955142887899,0.15753373125873735,0.4567543667839827,0.7159555333709571,1.2741365199633878,2902.9182708212843,1.0018501535327042
pred_alpha[23],0.4092384028005716,0.008134016644689542,0.4373762597043714,-0.47589368772637575,0.1331497646459466,0.4315135240248184,0.6907117905754577,1.241341364501821,2891.3475539509486,1.0019182993004472
pred_alpha[24],0.3811090509808462,0.008127607741735444,0.43548542654846345,-0.5004307551139311,0.1068515331754755,0.4043181291555634,0.6618372723825648,1.194404133187462,2870.9245648819333,1.0019851761359868
pred_alpha[25],0.3503587889485137,0.008115775819648209,0.43353576680244454,-0.5281110441311365,0.08133483236153266,0.3747322961581368,0.6291191288451847,1.1586888023021602,2853.5782172911945,1.0020437198981036
pred_alpha[26],0.31778689079599676,0.00806565560800831,0.43167671397709495,-0.5667637569490308,0.051664017184175966,0.34290734066734974,0.5942455270347422,1.1183662117971074,2864.427902038601,1.0020889245948683
pred_alpha[27],0.2846666378507531,0.008026222062513359,0.43023290410264287,-0.6136358049907948,0.022483999638930732,0.3100369469091646,0.5561832648290489,1.0723568266264782,2873.3259928535085,1.002118509938129
pred_alpha[28],0.2522869605394173,0.008031588880808516,0.4294299476774737,-0.6519755436479568,-0.009183642650800692,0.2750938661274065,0.5232651626506682,1.031775008471107,2858.786460390801,1.0021323348113786
pred_alpha[29],0.2219367892886238,0.008034490044710586,0.4293039945097807,-0.6902620716628269,-0.03566575618724818,0.24304173525525796,0.4942594469151901,1.0017648125621967,2855.0467562370113,1.0021333480749601
pred_alpha[30],0.19490505452500737,0.008054899273863695,0.42969395741978755,-0.7248004917289482,-0.06679710579912755,0.2130259392716473,0.46826622932957873,0.9738568889088611,2845.759963000573,1.0021274695413462
pred_alpha[31],0.17248068667520258,0.008089114940367318,0.4303133844608865,-0.7482490963800408,-0.09019472493404938,0.1905180519146996,0.4470905698769594,0.9599616797134081,2829.8778914952686,1.0021223190444382
pred_alpha[32],0.15565564716351668,0.008125084474160688,0.430913694923493,-0.7674072772305243,-0.10566055384396925,0.17547097779644605,0.4295148158229774,0.9571491132675686,2812.7091341230416,1.0021241075520182
pred_alpha[33],0.14381283770118597,0.008174254482217562,0.4315002647721933,-0.7820233308052644,-0.11513569917735722,0.16497692882309606,0.41873582460842296,0.9499910849060313,2786.5434855568597,1.0021314519116542
pred_alpha[34],0.13579272627767028,0.008218298315463193,0.43220571136116887,-0.78191110688779,-0.12320425230346507,0.1574264072376328,0.40999296915463657,0.9404450316104883,2765.7772488568767,1.0021397844349518
pred_alpha[35],0.13043536565862787,0.008249399627816349,0.4331043126733488,-0.7850167788234073,-0.13080950797771387,0.15313284867906418,0.40644889796217615,0.9317640360910278,2756.3878762866398,1.0021451954554763
pred_alpha[36],0.12658080860971696,0.008250511900651165,0.4341272894163352,-0.788459881101055,-0.1371710344382961,0.1466358248275276,0.405443062022361,0.9286818776077814,2768.677574888991,1.0021456027019415
pred_alpha[37],0.12306910789659577,0.0082340842878487,0.43506087790657155,-0.7935821319558494,-0.14050560034493625,0.14142172333641195,0.4022782725425743,0.9383424118346599,2791.704503149999,1.0021408063669832
pred_alpha[38],0.1187445562909142,0.008202171378859908,0.43562618393012903,-0.7967756634581646,-0.14415383229057444,0.138195570351889,0.39895642189731434,0.9365843016510418,2820.786866084782,1.0021314340833782
pred_alpha[39],0.1129989795644049,0.008145757537546618,0.4357286151780642,-0.8035437572250281,-0.15257833304071497,0.13245878644880274,0.3910218460202673,0.9332512701929102,2861.3382851467886,1.0021180498642461
pred_alpha[40],0.10630666986872254,0.008076424260093733,0.4356117408985975,-0.8065515893509789,-0.1539387320538212,0.1253568968815194,0.3821153693563574,0.923601859591485,2909.115095858852,1.0021016163853813
pred_alpha[41],0.09926899212325324,0.008014343822432733,0.43553752351825936,-0.8203456902998773,-0.16345236569640645,0.12184669209277858,0.3775601016553253,0.9204842637346282,2953.352016310004,1.0020835774239931
pred_alpha[42],0.09248731124738323,0.007926227724316056,0.4356420879569628,-0.8270557458567076,-0.1738201751678144,0.11661791461015253,0.3687238648946489,0.9197356596934865,3020.8319808372426,1.0020671577316822
pred_alpha[43],0.08656299216049854,0.007794553639719187,0.4358881919661699,-0.8373816423564902,-0.18012273560687797,0.10683933467165181,0.3645720005471226,0.9073624004281226,3127.2867765765977,1.0020578864202474
pred_alpha[44],0.08209739978198542,0.007766621034187456,0.43609168267720655,-0.843011749926118,-0.1873837627300352,0.10018385064334963,0.3613000630222699,0.8967762413211029,3152.7633849338094,1.0020631822417045
pred_alpha[45],0.07966853773086666,0.0077610102627057856,0.4360301523386358,-0.8445557890217616,-0.1883655095576942,0.10039137423106252,0.35596209291569747,0.8961930164097016,3156.432669919202,1.0020906712542872
pred_alpha[46],0.07946499543497418,0.007759536567906758,0.43572078270376435,-0.8410909526977985,-0.1895078605118788,0.10036960747775436,0.3557570398971965,0.8945489167576893,3153.1525458592546,1.0021389921904236
pred_alpha[47],0.08135379951686626,0.007761164857290157,0.43539277010052985,-0.8413420592970693,-0.18594858349623233,0.10239844839536726,0.3595921403364526,0.8989276559042321,3147.085986880721,1.002198902255462
pred_alpha[48],0.08519234168883594,0.0077649524420283075,0.435242478629485,-0.8387665613979844,-0.1817927146871994,0.10754001748082931,0.3688867885513011,0.901429188264598,3141.8464013789026,1.0022610229900746
pred_alpha[49],0.09083801366317641,0.007764196378839813,0.43534505721845024,-0.8277565600794361,-0.17590189590681618,0.11318340157694388,0.3776086988380851,0.9063991240017008,3143.9397386112614,1.0023172301395464
pred_alpha[50],0.09814820715218073,0.007761675390086814,0.43563611156149445,-0.823312324697108,-0.1681153431580516,0.12040291924295085,0.3885011827522695,0.9104854941410707,3150.190333630357,1.0023612287071695
pred_alpha[51],0.10698031386814211,0.007759847279779029,0.4359606753325898,-0.8120936136563263,-0.16025067430977202,0.1297475931513947,0.39617297719117855,0.9275171765763253,3156.372749060017,1.0023882189119355
pred_alpha[52],0.11714417555998134,0.007759666427251368,0.43621526286911694,-0.8097194142125514,-0.14999133397706976,0.14017670372975555,0.40392881848538076,0.9291420094175293,3160.2075764891556,1.0023945986399292
pred_alpha[53],0.12821353888763057,0.0077433578191825544,0.4365543302400037,-0.7984345858083939,-0.13725317448178959,0.1523103572999027,0.4109019865345506,0.9423283058230065,3178.468736147694,1.0023808636669709
pred_alpha[54],0.13968901206031636,0.007727304745634434,0.4371991703806411,-0.781829288339854,-0.1262505234992456,0.16276114712801498,0.42078526524422344,0.9501164593368308,3201.1245949835434,1.0023489260353944
pred_alpha[55],0.15107118123959828,0.0077253958097464066,0.4382653103184601,-0.7697757935664628,-0.11277615147909754,0.17499566086504095,0.4310979341893044,0.9674196956246024,3218.3458606550325,1.0023021384936328
pred_alpha[56],0.1618606325870357,0.0077397638171488,0.4397005489441606,-0.7675904611058663,-0.10194436776728982,0.1857082766733941,0.441068242707363,0.9813776284027385,3227.4431366073723,1.002245930701153
pred_alpha[57],0.17155795226418785,0.007769070752162369,0.4412938188115587,-0.7680821378891453,-0.09311382873053695,0.19483702892837804,0.4540405225529849,0.9938637412128071,3226.3949972424707,1.002187339225032
pred_alpha[58],0.17966454593126502,0.007809398261390638,0.4427538655762695,-0.7488028261501984,-0.08639766929524056,0.20214420806847355,0.46389306516773865,1.0089947306013785,3214.3234772406736,1.0021336810648975
pred_alpha[59],0.18575487277920333,0.00785534044486197,0.44391423426376336,-0.7456588615365158,-0.08173415483682803,0.20814020294834185,0.4701265467133521,1.0153313345368145,3193.50880937808,1.0020883528452345
pred_alpha[60],0.18953303517092268,0.007900516002132844,0.44483487611281985,-0.7400334877672283,-0.07888724737933347,0.21063311093956633,0.4738438400709568,1.0132302625594458,3170.200609579454,1.002048835121134
pred_alpha[61],0.1907164538431826,0.007937943971101733,0.4455725509052499,-0.7392272652131089,-0.0772891138078485,0.21393496752530472,0.4762976905622951,1.0090411682732177,3150.799725735264,1.0020125588429751
pred_alpha[62],0.18902254953274297,0.007959877121030554,0.446079311454472,-0.7355230059014548,-0.07815518341617989,0.20764958119943014,0.4763500031763467,1.0122523830415393,3140.591395883491,1.0019783876334776
pred_alpha[63],0.18416874297636351,0.00795836717524147,0.44618159651915784,-0.7340123491704064,-0.08520572756427444,0.1986890872524259,0.47418518844581486,1.0119310975965858,3143.224215527512,1.0019467729448215
pred_alpha[64],0.17587245491080403,0.007926666180153188,0.44562527260385065,-0.743646250052802,-0.0939072997289454,0.19051086196479944,0.46521858034089536,1.0024750404281781,3160.519599763879,1.0019191738279636
pred_alpha[65],0.1639045939794198,0.007862227524502153,0.4442064868732143,-0.7531670022865838,-0.10639302876264681,0.1783216641367516,0.4509469808606981,0.9897690160490249,3192.115355925569,1.0018968486804907
pred_alpha[66],0.1488300652146326,0.007774430911739132,0.442180946266778,-0.7690071996837528,-0.11838831497734792,0.16646687020441348,0.4363949363986108,0.9716700364834242,3234.9146927257457,1.0018799247150938
pred_alpha[67],0.13182176660708536,0.0076849249144416085,0.4401041514506454,-0.7825281599955214,-0.13217332110285585,0.1478336299337374,0.41389779170049645,0.9501713858239653,3279.6815242896796,1.0018682512417088
pred_alpha[68],0.11406805057198971,0.007619967648114968,0.43841867844139676,-0.7944944522713366,-0.14735158603082565,0.12819756289425624,0.3965291301404835,0.9327222241573487,3310.3342106186496,1.001862997184998
pred_alpha[69],0.0967572695245575,0.007589792966461358,0.4373400863919835,-0.8103402810927935,-0.16684360044097063,0.11439878194456526,0.3771009704724447,0.9117967566417078,3320.3106159149615,1.0018677059285843
pred_alpha[70],0.08107777588000034,0.007595270362066424,0.43683540104145574,-0.8302601399438831,-0.18511703020843495,0.09733996423748073,0.3635596949438817,0.898492405844612,3307.8756653713676,1.0018884554242704
pred_alpha[71],0.06821792205353,0.007608249210216656,0.43669403727923445,-0.8468202742038107,-0.19821823743681743,0.08312394781018316,0.34972201229251343,0.8899588558103646,3294.466265373625,1.0019331437646273
pred_alpha[72],0.059116436950475616,0.0076390001675590334,0.43670488505275246,-0.857597228074129,-0.20689180932327128,0.07610762526503671,0.342096197563169,0.8725358693973198,3268.1581242725965,1.0020074167407418
pred_alpha[73],0.053575561993744074,0.007690910954868092,0.4368749022300596,-0.8654427719231392,-0.21501442258633074,0.07045608663984448,0.3359578052526192,0.874443329995946,3226.7002707707934,1.0021038265872075
pred_alpha[74],0.05107428002038392,0.007757719861590301,0.4373191947470533,-0.8685564656508955,-0.21689065251080641,0.06590463240074101,0.33363008931630117,0.8703000755001633,3177.817072795661,1.0022102996133113
pred_alpha[75],0.05109155105212367,0.007833974200073746,0.4380959562113434,-0.8684408431287489,-0.21489565868299712,0.06895979988012942,0.33470552972361467,0.8699765417202736,3127.333630238571,1.0023149134377516
pred_alpha[76],0.053106335110691814,0.007959363879890411,0.439126938938294,-0.8699527985703672,-0.2125948513781179,0.07284604796503477,0.3350494762568726,0.8814093695088638,3043.8513618691863,1.0024071449276588
pred_alpha[77],0.05659759221781697,0.008066408099995792,0.44019324540808735,-0.8664755369044317,-0.2110595852851327,0.07719412107164753,0.33582857618092554,0.8927505744438358,2978.0114815274933,1.0024784050510944
pred_alpha[78],0.06104495640292824,0.008111665776590594,0.44100703590839263,-0.8637821097761373,-0.20522129916033272,0.08265749758720908,0.3445790957994155,0.8970521245169081,2955.7720647522765,1.0025215167180788
pred_alpha[79],0.06597556500260288,0.008099100525645627,0.44148949352694034,-0.8583895475011085,-0.20251946279114558,0.08928395365266534,0.35130095056049504,0.8998859160442867,2971.4413778801895,1.002533097521324
pred_alpha[80],0.0709945622259253,0.008131273601508617,0.4419048777033795,-0.8582463953142105,-0.19858148858347177,0.09466042786534185,0.3561109660136941,0.8980257104479633,2953.5235742496975,1.002515559005287
pred_alpha[81],0.0757143415172901,0.008151817037488362,0.44250582444667913,-0.8511590927032829,-0.19410380958436624,0.09731798706653871,0.3618759851698428,0.9051653527016559,2946.65394701029,1.0024727192066512
pred_alpha[82],0.07974729632109172,0.008168469899158344,0.4434056686392971,-0.8517344958199617,-0.19474901102891973,0.09992324198378993,0.3682056301487509,0.8990635057098892,2946.599127560669,1.0024105778453287
pred_alpha[83],0.0827058200817247,0.00818645829295692,0.4445461436853539,-0.8410549406902668,-0.19373607151956657,0.1048411919100242,0.37260725930727434,0.9000167134890109,2948.7746696326703,1.0023374239035603
pred_alpha[84],0.0842023062435835,0.008204282031276709,0.4457381594867586,-0.8383753308201856,-0.19539014683679973,0.10592667842163017,0.37239782366183816,0.9010057480967464,2951.7424993958125,1.0022627831777806
pred_alpha[85],0.08386472068049869,0.00821375696719613,0.44678104893719145,-0.848222137222247,-0.1949459624927204,0.10520303060046986,0.3698633439664089,0.9065740206555091,2958.7330956726123,1.0021954178752697
pred_alpha[86],0.0815278622883594,0.008204920168126899,0.44768532789621795,-0.8489408346367806,-0.19641314761079404,0.10009278824974788,0.36941318504445886,0.9176718980351424,2977.124543563517,1.0021394282658507
pred_alpha[87],0.0771733419317184,0.008188115079121623,0.4485961149146384,-0.8528027490423526,-0.20305641165009308,0.09340819237074019,0.36816131648189104,0.9187541103037251,3001.533124308999,1.002096138888148
pred_alpha[88],0.07078589484312693,0.008166792591706397,0.44959559707537045,-0.8569897586975842,-0.20886321884243342,0.08703180662043623,0.36100388061427946,0.9180443991770364,3030.686725147198,1.0020676475201844
pred_alpha[89],0.06235025625513606,0.008144208734488258,0.4506579334791526,-0.8738347668214828,-0.21115652749260475,0.07881866016168679,0.34825164615357773,0.9103618284246662,3061.9369927789544,1.0020573631165972
pred_alpha[90],0.05185116140029707,0.008123554132054239,0.4517010779756859,-0.8826112761698796,-0.22015420753877515,0.06730832565540706,0.3388169360088257,0.9081248371033883,3091.79077074438,1.0020694030393213
pred_alpha[91],0.03927334551116085,0.008108768729287182,0.45273239707388224,-0.8947037063566272,-0.23096779108724413,0.05713350437245199,0.3280266881651661,0.8881523479737715,3117.2620933997696,1.0021069505785651
pred_alpha[92],0.024426987699531326,0.008104822470943797,0.4540532175497874,-0.9216214410500377,-0.24937874956026052,0.04395262619463064,0.3157881947208042,0.8690817459576561,3138.5315751289972,1.0021686553336262
pred_alpha[93],0.006393284899748891,0.00810080103860684,0.4560928669864898,-0.9447776212647322,-0.2680796068392701,0.026084485863841912,0.2959208218638593,0.8548307446760802,3169.9369846524714,1.0022461260342166
pred_alpha[94],-0.01593683664738003,0.008110577532945062,0.45905224870169375,-0.9787421851391435,-0.2956970442921499,0.0012305742820194476,0.2750226765003206,0.8496589737573961,3203.4701217224933,1.0023306831514933
pred_alpha[95],-0.04367245124175588,0.008148081909826308,0.4633397930889643,-1.0239568785627118,-0.3225892408706238,-0.026025804288559204,0.25138797455257694,0.8209389268497214,3233.6158762841114,1.0024108825815898
pred_alpha[96],-0.07792263318328005,0.008247834595974949,0.47078783790752876,-1.0682237426942214,-0.36479367355316594,-0.06062812496973795,0.22742914564038336,0.797810324511379,3258.1463198727934,1.0024604442274423
pred_alpha[97],-0.11979645677185369,0.008483591261840654,0.48643367063762205,-1.1456315873231864,-0.4220713526735227,-0.10535325526524263,0.20073612170035185,0.7867088782885654,3287.666721067057,1.0024231145559377
pred_alpha[98],-0.24819835797135886,0.008161772680422782,0.4427781512571724,-1.126981029249118,-0.5156525104238608,-0.2682185042182258,0.018353737886124925,0.7157435917928612,2943.088866004059,0.9993768827908307
pred_alpha[99],-0.25184186714937423,0.008281586098662343,0.4492780583118208,-1.1435249167956756,-0.5232222005287922,-0.2721559056975113,0.018623167599462115,0.7262505845349482,2943.088866004061,0.9993768827908307
pred_alpha[100],-0.2554853763273896,0.00840139951690191,0.4557779653664692,-1.1600688043422331,-0.5307918906337236,-0.2760933071767968,0.018892597312799308,0.7367575772770352,2943.088866004059,0.9993768827908307
pred_alpha[101],-0.1642923850246226,0.008985666547434653,0.5128306918056201,-1.2485762076186784,-0.4842604260088721,-0.1464974547739578,0.1735150755200379,0.7807814113853337,3257.2224648759197,1.0022815906598421
"pred_beta[1,1]",0.1259646736882637,0.0047211314840326325,0.34555251449509417,-0.5713572337565568,-0.09891862041209704,0.1382050845911717,0.3555449770818633,0.7912691472446247,5357.176112116914,0.9995479838125084
"pred_beta[2,1]",0.121602911853088,0.0045576534983168765,0.33358711399317453,-0.5515729235727477,-0.09549337863066323,0.13341947569189533,0.34323356892022266,0.7638699767728705,5357.176112116913,0.9995479838125084
"pred_beta[3,1]",0.1172411500179123,0.00439417551260112,0.3216217134912548,-0.5317886133889385,-0.09206813684922943,0.12863386679261893,0.33092216075858205,0.7364708063011164,5357.176112116911,0.9995479838125084
"pred_beta[4,1]",0.11287938818273659,0.004230697526885363,0.30965631298933516,-0.5120043032051294,-0.08864289506779562,0.12384825789334251,0.3186107525969414,0.7090716358293621,5357.176112116913,0.9995479838125084
"pred_beta[5,1]",0.39570413629981593,0.010519668039195467,0.7347293098032125,-1.0302118403980474,-0.06446159974891758,0.3634823043790919,0.8394659878201461,1.921870145960888,4878.099555208746,0.999770713872158
"pred_beta[6,1]",0.44746333430345064,0.010356874252101004,0.7079764708588723,-0.8912817906779456,-0.011678681899215346,0.4039759864827663,0.8739818866364342,1.9671315599278707,4672.832806340623,0.999691443213646
"pred_beta[7,1]",0.48418657611305155,0.010594483813135101,0.705071391826017,-0.8311199337247209,0.025076019443914098,0.43448856619931503,0.9067831179858664,2.0156283024535275,4429.009212744642,0.9996081506523855
"pred_beta[8,1]",0.5071921035134523,0.01078413740186949,0.6986446133146339,-0.7425085149270263,0.053156400302594706,0.4452040136969301,0.9199997325753562,2.032835580127592,4197.027400921819,0.9995359717728894
"pred_beta[9,1]",0.5177981582894867,0.010782285349571222,0.6828113292869534,-0.6756997954324722,0.07328514837293443,0.451855225142307,0.9181489379500559,2.049681584304607,4010.3270768139487,0.9994722518008159
"pred_beta[10,1]",0.5173229822259888,0.010579122580938294,0.6601160003924583,-0.6307095387371104,0.08402314071573101,0.4459572273450656,0.8967885277748089,2.018855080036981,3893.5093374492467,0.9994158813771664
"pred_beta[11,1]",0.5070848171077915,0.010196462702396818,0.6333802726271226,-0.59550588314876,0.09054134559021704,0.44740760149059944,0.8787775559699493,1.9335694935733145,3858.602091125445,0.9993717548065982
"pred_beta[12,1]",0.48844164576859533,0.009647726082610263,0.6023476347808983,-0.553079415802345,0.09103470123067653,0.43173107803887345,0.8463414593320697,1.8363824273784066,3898.0238288825203,0.9993481363227603
"pred_beta[13,1]",0.4629866303797021,0.008963335370992408,0.5662767258253818,-0.5246358348267329,0.08351653190550401,0.41188869682482054,0.7977171763642217,1.7178770704494588,3991.334556717979,0.9993443175597753
"pred_beta[14,1]",0.43239912636091765,0.008203017981197627,0.5267864889186417,-0.5131916486462865,0.07527445761789614,0.38859268937153585,0.7550312212468662,1.6039162516066674,4124.031065942205,0.9993564601616014
"pred_beta[15,1]",0.3983586193134606,0.00743708884723026,0.48662554492044585,-0.47854944803340105,0.07257653787072355,0.36663711210175515,0.6956791277692379,1.467524682703314,4281.380891981703,0.9993805948570035
"pred_beta[16,1]",0.36254459483854995,0.006728000738582983,0.4481658567239709,-0.45232624695177015,0.06658361024505689,0.3303790664295124,0.6421147100342053,1.3493452198089506,4437.1639205930005,0.9994104170680499
"pred_beta[17,1]",0.3266365385374043,0.006110478040630001,0.4121694818433563,-0.420625936765194,0.05563363128035673,0.30267781882741596,0.5814699494292769,1.218051705811122,4549.894107344239,0.9994361536020944
"pred_beta[18,1]",0.2923105808133706,0.005576219121850054,0.3771830748367165,-0.4023552131570764,0.046809460163414966,0.2709575290863298,0.5303642716481645,1.0951866207831986,4575.354305053604,0.9994459596975448
"pred_beta[19,1]",0.26071816879491894,0.005088042098718979,0.3411584851668771,-0.3779086543766075,0.03874452630921582,0.24527041816110773,0.4774483258876421,0.982370129189261,4495.841197690591,0.9994338035006982
"pred_beta[20,1]",0.23192067931992702,0.0046199304538433,0.30481408777150987,-0.36218503034505845,0.03045069551259483,0.21940387212187812,0.4233002601958553,0.8748107437603386,4353.105517923744,0.9994075060091501
"pred_beta[21,1]",0.20584372496026185,0.004147068967948207,0.2705432606050703,-0.32508298000266034,0.027194578755360067,0.2002483777202883,0.376456914044602,0.7558351070853204,4255.895187564911,0.9993821145967583
"pred_beta[22,1]",0.18241291828779002,0.0037155953842235665,0.24100323492304268,-0.29238252147559346,0.02313363098124955,0.17896453499819115,0.3398840900880412,0.673110621739426,4207.158895176926,0.9993808552194593
"pred_beta[23,1]",0.16155387187437834,0.003380641689684582,0.2176392595967943,-0.2748071098469738,0.0171246333688257,0.1630280399791647,0.30383956511793636,0.59997093699657,4144.538648788715,0.9994289070153354
"pred_beta[24,1]",0.14319219829189353,0.003093162258224311,0.1994128767178453,-0.24542354128745625,0.012877378951055004,0.14425690865795934,0.27623251208713884,0.5383191568569915,4156.243586200616,0.99953751890394
"pred_beta[25,1]",0.12721586249830355,0.0027984662557451537,0.18298995840064738,-0.22845853948928124,0.007062645641180936,0.12639514252214124,0.2506494401352771,0.483520217276064,4275.7703151714195,0.999700515367149
"pred_beta[26,1]",0.11283629199602492,0.002499595070820546,0.1665453326322745,-0.2139630249193531,0.00041308778535907836,0.11267690564065967,0.22371395230170638,0.43952424512965366,4439.4136534903355,0.9999042345540312
"pred_beta[27,1]",0.09867936083109456,0.002250427854843897,0.15185619465842815,-0.19507922836681313,-0.003400871237514539,0.0977134375933776,0.20021561558835935,0.40043243843492093,4553.389860347728,1.000116341732697
"pred_beta[28,1]",0.08335161131063216,0.0021259284974190114,0.14178174475700694,-0.19220784662740767,-0.012167196724918346,0.08142926380823845,0.17704388933856888,0.3622218187098687,4447.780288149601,1.000264371770191
"pred_beta[29,1]",0.06545958574175759,0.0021019198382322803,0.13775642306533323,-0.19785945677941766,-0.026758553163504714,0.06225928291631378,0.15739078655395977,0.3386090367768349,4295.279376356468,1.0002720432274128
"pred_beta[30,1]",0.043609826431590566,0.0022192284578915313,0.1381161808571635,-0.2191790766369934,-0.04999199634799009,0.039592976795469206,0.13555441428252923,0.32049883645830524,3873.335319419819,1.0001485789991127
"pred_beta[31,1]",0.01640887568725085,0.0022712788406334433,0.13899518975099107,-0.25044075504494334,-0.07820881120510313,0.012725522721021648,0.10892754979692248,0.29135799403219714,3745.058719574592,0.9999774413630346
"pred_beta[32,1]",-0.01683272564675935,0.0022669861797348927,0.13767534618650742,-0.2823993302655258,-0.10868026236247451,-0.020986983482714765,0.07400690486930553,0.24986873175339347,3688.2012382550247,0.9998411575790048
"pred_beta[33,1]",-0.052989979069805224,0.002286764791499404,0.13659064845892502,-0.3172948711771749,-0.14415381163214774,-0.05515316678015715,0.03703880240814139,0.20939792475457053,3567.787173397718,0.9998079603750477
"pred_beta[34,1]",-0.08765198572207471,0.002397405462096282,0.13961128755705246,-0.3609295438871263,-0.17898694406964494,-0.08593160071791558,0.006791625167880382,0.1837467385942277,3391.23654604911,0.9999058786975914
"pred_beta[35,1]",-0.11640686240886987,0.002593230863435478,0.14793385858421684,-0.41239786411950985,-0.2132806070899142,-0.1129999977589643,-0.01672576730112102,0.16916316950440274,3254.264187357906,1.0000749278778513
"pred_beta[36,1]",-0.1348427259354928,0.0027912584218584336,0.15905391270902927,-0.45439636614231793,-0.23646421952673027,-0.13166924238599165,-0.02476592161944207,0.1695562106607884,3247.0473476764687,1.0002222106201057
"pred_beta[37,1]",-0.1385476931072453,0.0028846721480082103,0.168523137609904,-0.4868936190135642,-0.24758690142911194,-0.1333381758757327,-0.023211042591345103,0.17683334381901028,3412.9203265412616,1.0003061166142129
"pred_beta[38,1]",-0.12313573087462329,0.002818481505352259,0.17244590332633122,-0.4779607679025506,-0.23095123519704827,-0.11792821861539518,-0.007699809832566955,0.20215801397143995,3743.4788560593274,1.0003298008752985
"pred_beta[39,1]",-0.0875589636290116,0.002630761755783085,0.17121401663103097,-0.43679529088754604,-0.1966486361835548,-0.08286902303877532,0.02613816886024113,0.23751434387260642,4235.606363476337,1.0003115576568058
"pred_beta[40,1]",-0.03736901423970024,0.0025080898228189512,0.17085278677762675,-0.3743622797607396,-0.1458424383078542,-0.03596331036912165,0.07410562034784168,0.2996161803705046,4640.427181969604,1.0002807183469493
"pred_beta[41,1]",0.02110776686408821,0.0026531283570355086,0.17693285249148843,-0.3256128473781631,-0.0959276888933134,0.017415016753564185,0.13678645370503772,0.37760267187488683,4447.341054007434,1.0002747219351527
"pred_beta[42,1]",0.08154502925312933,0.003157325708722501,0.19086386564587218,-0.279612370895472,-0.04778447294846773,0.07218021015406831,0.20795884505791562,0.47205733295810115,3654.3375396849015,1.0003106822735173
"pred_beta[43,1]",0.13761642249820072,0.003926155217320478,0.20935231764923912,-0.25556003387433934,-0.009029048745065469,0.1275875321442856,0.27879616490299536,0.5687664392856628,2843.286454957226,1.0003719898360375
"pred_beta[44,1]",0.1829955961700784,0.004632951179459238,0.22694601384897245,-0.23432365430421065,0.024603919634080824,0.17404340974100235,0.3384550170421119,0.646531648378658,2399.5492635850596,1.000435556048684
"pred_beta[45,1]",0.21159846714407843,0.005123495456842766,0.23891499125303645,-0.22441844983943304,0.04119260738255644,0.20319763589209466,0.3763843177851329,0.6966826710261225,2174.473362450989,1.0004862819443199
"pred_beta[46,1]",0.2213793544812614,0.0053558971808638,0.24508635954635805,-0.22550578368688934,0.04179963595049105,0.21432159307986548,0.38963201110985923,0.7114927155894528,2093.9862216117986,1.0005090699964767
"pred_beta[47,1]",0.21362732971203258,0.005366921978319865,0.24842954190475913,-0.23980723917423968,0.03415600834710092,0.2068372010325155,0.3897478204971401,0.7109748438377683,2142.673081244483,1.00049006576363
"pred_beta[48,1]",0.18973138276616272,0.005199736508521365,0.25129811460900475,-0.2696231220571171,0.010889576760834713,0.1838162813580183,0.3642400482521212,0.6897158049172882,2335.693149792603,1.0004267466609176
"pred_beta[49,1]",0.1510805035734231,0.004897029797346871,0.2544316900782572,-0.31271220642365627,-0.02698501609809755,0.14270374416350043,0.3179973092086059,0.6750219503055093,2699.4600977882938,1.0003325505907217
"pred_beta[50,1]",0.09906368206358379,0.004502336531059862,0.25689545758071086,-0.3729521926499591,-0.07932846787538703,0.08549109261505486,0.26484755225777057,0.6296467140486082,3255.644253163248,1.0002294561852347
"pred_beta[51,1]",0.03506990816641613,0.004069737981630863,0.25694524554042986,-0.4539356500667946,-0.13858788501676267,0.023836192952821356,0.20009882356212166,0.5577267753890396,3986.100767621744,1.0001336790233593
"pred_beta[52,1]",-0.03925662209218221,0.0036950222880520306,0.2542600308530593,-0.5447277698476871,-0.20258498793996266,-0.04698029310163794,0.12225310567524891,0.47472428091646945,4735.022706513078,1.000044264682054
"pred_beta[53,1]",-0.12100456331957829,0.003579629556117078,0.25319083651517493,-0.6399191693026123,-0.2819693688574999,-0.11854803183415938,0.03817646229121831,0.3854996652645095,5002.876668154586,0.9999467966338577
"pred_beta[54,1]",-0.2068700276865602,0.003817575597601989,0.25857251676841536,-0.7431719834632554,-0.368961998976713,-0.19926571859438322,-0.03632635862097694,0.29387707344857267,4587.641083283298,0.9998438742494874
"pred_beta[55,1]",-0.29354900903156494,0.004403637735389704,0.27206852761333034,-0.8555273657029934,-0.4660327267159368,-0.2798534787150309,-0.10822542603810283,0.21630840518950734,3817.0991711899587,0.9997601618519032
"pred_beta[56,1]",-0.3777375011930275,0.005237715342787706,0.29130560901000574,-0.9817104582346434,-0.565718173673866,-0.3574454043241535,-0.17154904506684054,0.14449646859034193,3093.242083515622,0.9997197563801028
"pred_beta[57,1]",-0.4561314980093831,0.0061067151904700715,0.3113834799393829,-1.1186288728675366,-0.6557289897429055,-0.43092641054991576,-0.23397279439181112,0.07931685409892901,2600.0147080888282,0.9997315096806608
"pred_beta[58,1]",-0.5254391371261042,0.006870458317230605,0.32718003805551393,-1.212359389051196,-0.7385881096352744,-0.49844157524744886,-0.28804343160805107,0.03615450860995231,2267.786569488211,0.9997975358866074
"pred_beta[59,1]",-0.5834511058424455,0.007547129452049215,0.3367729127414742,-1.2797563450757141,-0.8073199017524673,-0.5634593896713713,-0.3362229332482365,-0.0038145586062428042,1991.1808539760189,0.9999191190218734
"pred_beta[60,1]",-0.6298792192874946,0.008077776078598848,0.34268095781163516,-1.3264841203332676,-0.8626032766119742,-0.6151143307492313,-0.3837681269919728,-0.029881047602247187,1799.684283788066,1.0000874149925665
"pred_beta[61,1]",-0.6646326519903039,0.008425827238241475,0.3475198427510465,-1.355971975314135,-0.9011524401408078,-0.6500456539390849,-0.415309744454595,-0.04449525255807424,1701.1167221508867,1.0002827709100706
"pred_beta[62,1]",-0.6876205784799259,0.00863197965090332,0.352483505977084,-1.3875352650099066,-0.9246788077590227,-0.6777578224048745,-0.4323445905440161,-0.0472052951225805,1667.465216838218,1.000478828353996
"pred_beta[63,1]",-0.6987521732854134,0.008694466963167101,0.3569350761864171,-1.4296204918451791,-0.9371309002905338,-0.6919331414883536,-0.43954133182669547,-0.05811482582879206,1685.3594229894031,1.0006533299637566
"pred_beta[64,1]",-0.6979366109358189,0.008608020849073887,0.3588237207194993,-1.447822789816708,-0.934228869443054,-0.6925843659484865,-0.4371757523523486,-0.050053765097768384,1737.623453982844,1.0007957363991533
"pred_beta[65,1]",-0.6851022584973768,0.008366484884953588,0.3559127078162175,-1.425295080451498,-0.9167062718581263,-0.6784815036150362,-0.42588969357969764,-0.04269171801220027,1809.6764210394876,1.0009027342735215
"pred_beta[66,1]",-0.6604623849176815,0.007998160301361412,0.34857331155656757,-1.3877580437431234,-0.8842133171464175,-0.6579125582768339,-0.408696102016281,-0.0299702235867838,1899.3633625032573,1.000963827671743
"pred_beta[67,1]",-0.6244484192519011,0.00750665786301264,0.33942236727188224,-1.3240549669654689,-0.8437912600887261,-0.6195561720235794,-0.3809145388769708,-0.00013574575097726016,2044.5026222520123,1.000957297335325
"pred_beta[68,1]",-0.5774973359137154,0.006922135086163687,0.33090947120774117,-1.276712371604746,-0.792062191325694,-0.5710791544641753,-0.3420775746345561,0.035319835611040074,2285.2738732841626,1.000864171545448
"pred_beta[69,1]",-0.5200461093168052,0.006277908736070624,0.3242634962386084,-1.2023744020597635,-0.7275117756496439,-0.5164533237518446,-0.29271145455011754,0.0800237853289135,2667.8789851563424,1.0006856864814948
"pred_beta[70,1]",-0.45253171387484986,0.005554555234043546,0.3191758750210599,-1.1235352688231512,-0.6570532782873846,-0.45038542118225156,-0.23545962961008743,0.1553512416897385,3301.881902542105,1.0004485374849033
"pred_beta[71,1]",-0.37539112400153,0.0049282470084303686,0.3144698912129338,-1.0227473762792223,-0.5767870804629468,-0.372566208321434,-0.16324518604750082,0.24265027870579314,4071.675951662701,1.0001915707584503
"pred_beta[72,1]",-0.2897972161863746,0.004658494908779382,0.3103967940845271,-0.9125008208027403,-0.4943831332006454,-0.29266805789076367,-0.0841211213765043,0.3343527157056474,4439.593467235865,0.9999469406196306
"pred_beta[73,1]",-0.20027328650832493,0.00479774817398672,0.31147120052259153,-0.7975554010553304,-0.41637515320841323,-0.21104530542751704,0.0047841606950816875,0.4301949512283522,4214.643991991791,0.9997364292535774
"pred_beta[74,1]",-0.11229561285673176,0.0053872102228682455,0.3215353593392512,-0.7074127349039244,-0.33348253969637565,-0.12603682254622292,0.09540317903593981,0.5540425279712567,3562.292958429995,0.999587694278011
"pred_beta[75,1]",-0.03134054038160716,0.0063017828087441295,0.3403686216746219,-0.6552000394365942,-0.2704818263508503,-0.04146846737136388,0.1958007094805307,0.6719979083324776,2917.240066683057,0.9995110629029238
"pred_beta[76,1]",0.03711558576704119,0.0074688975538736825,0.3636743649419659,-0.6284308561926308,-0.22436952984063724,0.024138236822692366,0.28061440239312674,0.7877044334097181,2370.8952861367457,0.9994875077033545
"pred_beta[77,1]",0.08759642043920468,0.008440962623395741,0.38506319281430096,-0.6228564912528025,-0.18632977563315561,0.07388755439307416,0.34827737273517634,0.8840539864355457,2081.0382399463388,0.9994880775172388
"pred_beta[78,1]",0.11466841134260211,0.00900301489534696,0.39820898495402246,-0.6156609127687459,-0.16985600546042823,0.10198362726644891,0.37907884604714276,0.9316083084228781,1956.3482787641135,0.9994905992011301
"pred_beta[79,1]",0.11591399882479636,0.009139226869657588,0.4003823411561751,-0.6201486785307359,-0.16642486124003214,0.10344567697063556,0.3846189262745431,0.9252098882778976,1919.247187473331,0.9994838542411321
"pred_beta[80,1]",0.09386829216241481,0.008896290045499338,0.3940593805537754,-0.638921656073133,-0.18431761919685352,0.08016238550215601,0.3568948134094044,0.8699669076338135,1962.0292298292652,0.9994661898204804
"pred_beta[81,1]",0.05152665575224715,0.008323597096204758,0.38280231142881377,-0.6677529804746244,-0.2199794909852832,0.045548640764042234,0.3096175579088578,0.8146308065966765,2115.0809948081046,0.9994387066375028
"pred_beta[82,1]",-0.00811554600891433,0.007491890842592727,0.3700050863005271,-0.709761753257002,-0.26494512441820334,-0.01917397345306604,0.24000585949714034,0.7522156105272881,2439.1162873675926,0.9994040779620573
"pred_beta[83,1]",-0.08206294872427944,0.006532138178570017,0.35835483557180864,-0.7792581209969625,-0.33215022075132383,-0.08781676986312585,0.1490532620664092,0.6507724654521363,3009.648744382632,0.9993657397271533
"pred_beta[84,1]",-0.1673201879970591,0.0056373315256759505,0.34977905605554876,-0.8473979018124133,-0.4084601784527061,-0.16816498012715245,0.05925362905662736,0.5441607282808018,3849.820234564982,0.9993261247189129
"pred_beta[85,1]",-0.26082213060755144,0.005068864349086487,0.3462379368830458,-0.9383009298131457,-0.49094176619013524,-0.25532434737397225,-0.041054108532184344,0.44557322245361375,4665.8198308102765,0.9992853570572073
"pred_beta[86,1]",-0.35857697376616504,0.005067609020492893,0.3514631465937532,-1.0803839338230898,-0.5824343243246002,-0.3544919934409144,-0.12612572728812813,0.33507545442948516,4810.092019272043,0.9992446803954208
"pred_beta[87,1]",-0.4559351561566363,0.005527981968415141,0.36785469439433843,-1.2257729694249897,-0.6927398050683242,-0.4472811003363068,-0.20450087583278004,0.22960790296375466,4428.119880820612,0.9992099271123738
"pred_beta[88,1]",-0.5482331184235032,0.006392186517449416,0.3933921380916849,-1.3892117130464958,-0.800205345597373,-0.5284559890867289,-0.27322338880808505,0.1607208390536466,3787.498549135216,0.9991850385190688
"pred_beta[89,1]",-0.6308073012113081,0.007345346530045638,0.42270057431042757,-1.5569016277345893,-0.889592813304416,-0.5991289774254476,-0.33674926080011774,0.10707892656384455,3311.6245791735078,0.9991681771398785
"pred_beta[90,1]",-0.698994145164592,0.008148177167196778,0.4497294097153079,-1.6954376342843562,-0.9734740828440267,-0.6631052767804797,-0.38572664582338473,0.06451133891542678,3046.362993113749,0.9991547801707813
"pred_beta[91,1]",-0.7481300909278966,0.008647880546290659,0.47035308201649095,-1.7948945192424057,-1.0409306830480318,-0.7107209127504368,-0.4194481367503846,0.05795533843526517,2958.207434023655,0.9991413847970652
"pred_beta[92,1]",-0.7751004634618778,0.008797188393384718,0.48549911319709166,-1.8516022114878639,-1.0793132401004248,-0.7391617135488288,-0.4311782388341313,0.06224544700988374,3045.71384018575,0.9991285997769374
"pred_beta[93,1]",-0.783259046447307,0.008726329172702663,0.5016472092862143,-1.849302328770444,-1.092008009291187,-0.749607629630725,-0.43247960254539297,0.08458466545406021,3304.7120078885164,0.9991199787912429
"pred_beta[94,1]",-0.777647947593746,0.008611764422939273,0.5232842431737753,-1.9000649712744129,-1.103089884833618,-0.746333301210278,-0.41490350224666595,0.14104760592878737,3692.2494399080965,0.999114089583336
"pred_beta[95,1]",-0.7633092794086072,0.008714891413306213,0.5552688125788264,-1.9235003413415837,-1.111183018137016,-0.7357984157820316,-0.37906982212943924,0.2220454878735686,4059.5940043188757,0.9991136162102942
"pred_beta[96,1]",-0.7452851543993023,0.009110796523980391,0.6122650879568956,-2.0237697555323595,-1.1293802180430401,-0.7098947573301939,-0.33497568260364896,0.37133996584364215,4516.128571223898,0.9991424216118857
"pred_beta[97,1]",-0.7286176850732433,0.010169217157511925,0.726563008490189,-2.213719323062071,-1.1807213036546331,-0.7056749190847375,-0.26167787438639095,0.6732691187382789,5104.715264706701,0.9992335684281993
"pred_beta[98,1]",-0.29712622432377894,0.01113623313039577,0.8150913341911146,-1.8664503885155308,-0.8386616145972785,-0.32599897863863836,0.2333298323869823,1.347720854072928,5357.176112116924,0.9995479838125084
"pred_beta[99,1]",-0.30148798615895467,0.011299711116111532,0.8270567346930341,-1.8938495589872848,-0.8509730227589192,-0.33078458753791473,0.23675507416841607,1.367505164256737,5357.176112116914,0.9995479838125084
"pred_beta[100,1]",-0.30584974799413034,0.011463189101827295,0.8390221351949538,-1.921248729459039,-0.8632844309205596,-0.3355701964371911,0.2401803159498499,1.387289474440546,5357.176112116911,0.9995479838125084
"pred_beta[101,1]",-0.7353845564228972,0.011533813859635278,0.8587182349676505,-2.5362063268394737,-1.258441412661739,-0.7067973800938021,-0.20328907117509964,0.9842425678703477,5543.135490714869,0.99930495743712
"pred_beta[1,2]",0.17877932787181902,0.00404157501438381,0.27450063991598744,-0.401343086000466,0.018226216264819767,0.1917852882557568,0.35903091657908515,0.6820424423787949,4613.021029136527,0.9995146898347492
"pred_beta[2,2]",0.1725887601007351,0.003901627939258878,0.2649955431308369,-0.3874458328732856,0.01759509952251556,0.18514436484152763,0.34659880125873477,0.6584254503441858,4613.021029136529,0.9995146898347492
"pred_beta[3,2]",0.16639819232965125,0.003761680864133948,0.25549044634568624,-0.37354857974610534,0.016963982780211353,0.17850344142729846,0.3341666859383844,0.6348084583095769,4613.021029136524,0.9995146898347492
"pred_beta[4,2]",0.16020762455856732,0.0036217337890090138,0.24598534956053564,-0.359651326618925,0.016332866037907144,0.17186251801306923,0.3217345706180339,0.6111914662749678,4613.021029136528,0.9995146898347492
"pred_beta[5,2]",0.6517324179300015,0.008322828140409298,0.4789241688571509,-0.35752783175048714,0.38776836555936817,0.6606903414775787,0.9380548294088834,1.608289615673121,3311.2475856151186,0.9997598132911406
"pred_beta[6,2]",0.659837520766128,0.007555173108793962,0.4531149947023508,-0.256370139114143,0.3937284571396171,0.6635559777379199,0.9318317161989099,1.5652999953920157,3596.897229821862,0.9997455894106205
"pred_beta[7,2]",0.6656540662267686,0.007001026488896803,0.437307341679581,-0.19360005863711255,0.41010997027923435,0.6695198009821492,0.9261256188079314,1.535597612336782,3901.6660559053184,0.9997331409189921
"pred_beta[8,2]",0.6692729671620193,0.006554806049013918,0.4233958027169536,-0.15955189842614736,0.4157892746113576,0.6623019381940173,0.9173985615200888,1.5315755904290826,4172.27960666118,0.9997324582917521
"pred_beta[9,2]",0.6707851364219769,0.006169980450720879,0.4090495993618189,-0.12169709643051167,0.42864778847383755,0.6585365786329698,0.9068607831969153,1.5083979261991975,4395.257941261205,0.9997452951340103
"pred_beta[10,2]",0.6702814868567379,0.005833152841970874,0.3946099542030286,-0.08204993309926342,0.4392142277954065,0.6570413383900504,0.8939868968779261,1.4724467071241585,4576.456729498261,0.9997690581829444
"pred_beta[11,2]",0.6678529313163984,0.005538784980728917,0.38076246494004534,-0.029333601146692326,0.4439481761055758,0.6535249642668965,0.8811615761495444,1.4459865936755496,4725.842542491935,0.9997989317488452
"pred_beta[12,2]",0.6635973674798589,0.005274768430492739,0.3673769673119886,-0.005183336025738753,0.44397022353911814,0.6484654724463684,0.8662265657079702,1.4302759171597745,4850.841148724187,0.9998294563971453
"pred_beta[13,2]",0.6576540278034898,0.005026498130482148,0.3538526676786095,0.010906045375500075,0.44648721115631984,0.6416782178870799,0.85350265778839,1.3969013932117749,4955.801438841327,0.9998550919415916
"pred_beta[14,2]",0.6501772939433438,0.004787946573785618,0.3401036385211048,0.024694508067047594,0.443439354796231,0.6350607893787932,0.8401480231549083,1.3721288236170774,5045.7295059775515,0.9998702632468887
"pred_beta[15,2]",0.6413215704359682,0.0045584238932232036,0.32634112587527203,0.03239039054812418,0.44065537080178774,0.6276993191794737,0.8262797081450521,1.334608186779935,5125.239900015392,0.9998701938537566
"pred_beta[16,2]",0.631241261817911,0.004337378793196541,0.31269582687412534,0.04562135494608112,0.44148958003390804,0.6185998799267829,0.8116428562181448,1.2927036682041915,5197.439793507166,0.9998521203054962
"pred_beta[17,2]",0.6200907726257199,0.004121114624426787,0.29899902841087156,0.05565467342868058,0.43897973605934076,0.6093760941409195,0.7944900480849477,1.2482072491392282,5263.93073399944,0.999816208098322
"pred_beta[18,2]",0.6080249469077862,0.0039023668979335604,0.2847780364940354,0.06824394172545836,0.434965169235779,0.5997758725445903,0.778009484387628,1.2048937385516354,5325.455799772662,0.9997652842062564
"pred_beta[19,2]",0.5952673592382005,0.0036780697742466763,0.26980156757048684,0.07442464396344131,0.4277189170840222,0.589343953849296,0.7588962236649607,1.1601561781811205,5380.8267607081925,0.999703491253977
"pred_beta[20,2]",0.5821843772010616,0.0034589188756070617,0.2547279046304044,0.0916510850114469,0.42326625740019075,0.5775062507317172,0.738788022197838,1.1054187785177367,5423.408202775614,0.9996353380453609
"pred_beta[21,2]",0.5691601527273711,0.003258915633379943,0.24043319260364107,0.09886668642276131,0.4175912681699848,0.5651333554996327,0.720167327403445,1.0686687213395936,5443.053603572331,0.9995663120298093
"pred_beta[22,2]",0.5565788377481298,0.00308819023804447,0.22755602379472434,0.1016858222510432,0.41298575654315706,0.5567968709091391,0.7027624605237188,1.0222730134894396,5429.609316860772,0.999504405586309
"pred_beta[23,2]",0.5448245841943385,0.002948236164942865,0.21620847523199582,0.11994480388823239,0.4028358074472783,0.5455300221759154,0.68590459359805,0.9827250021403195,5378.001135480124,0.9994601745379526
"pred_beta[24,2]",0.5342815439969989,0.0028305885449538687,0.20589827198448035,0.1296543543707909,0.3992388310945705,0.5342663580515672,0.6694906664406817,0.9490805066332977,5291.172421680912,0.9994457916794393
"pred_beta[25,2]",0.5253138458023561,0.0027307156733159983,0.19580603179775394,0.14119660435944778,0.3974279019510648,0.524599623975555,0.6545753610303207,0.9197236934948585,5141.610409357888,0.9994749862373995
"pred_beta[26,2]",0.517925794599394,0.0026337297743859564,0.18588230550792037,0.15597606047308954,0.3961330801158728,0.5175121861695489,0.6431236712359951,0.8866881964797855,4981.1964953620245,0.9995554580607068
"pred_beta[27,2]",0.5118102625296341,0.0025452846475651357,0.17702105237429847,0.16793587367605775,0.39356810451237845,0.5129219620044543,0.6321342599932588,0.8566167011250825,4837.011507309171,0.9996857329779121
"pred_beta[28,2]",0.5066498399431897,0.0024743080148919806,0.17011525746798073,0.17525500283015782,0.39169575502376863,0.5084743288112876,0.6228998208293526,0.8426288650447484,4726.92824511832,0.9998565084880183
"pred_beta[29,2]",0.5021271171901734,0.002423977804961396,0.1655004116317385,0.18448129601038127,0.3904586278204296,0.5016432291472719,0.6148906551312103,0.8287795565499381,4661.663046742181,1.0000489176371625
"pred_beta[30,2]",0.49792468462069817,0.002393188216094845,0.16267818235610426,0.1850323301725567,0.38692620605432365,0.4982630597733492,0.6075962212939539,0.8172851431843591,4620.669553079079,1.0002422250761394
"pred_beta[31,2]",0.4937251325848765,0.0023821647690396345,0.1604753934023059,0.18675569834055455,0.3835610947664886,0.4925482564555881,0.6014481700001213,0.812725804251704,4538.092076137149,1.0004248721295224
"pred_beta[32,2]",0.48924684043625105,0.0023666263871323936,0.1577897098373088,0.18436449752773781,0.3812482439537058,0.4888164363301838,0.5931393469975985,0.8007817993917898,4445.268009950825,1.000595154788132
"pred_beta[33,2]",0.48440210218995355,0.002349057366575541,0.15493400421546552,0.18128141967807232,0.3781587954016442,0.48266966464251315,0.5876733995456147,0.7874589063259663,4350.170156827951,1.0007469377458371
"pred_beta[34,2]",0.47916858286676584,0.0023387532366801497,0.15289494098846373,0.1830786286069227,0.37559166611534345,0.47624853720561133,0.581610557633499,0.7786210330621124,4273.831820097229,1.0008621309266266
"pred_beta[35,2]",0.473523997527864,0.0023420598388202807,0.15242305681337218,0.17684487835123414,0.3696312952287415,0.47130996785433554,0.5739648545578842,0.7756648222422311,4235.5065747124945,1.0009226679138874
"pred_beta[36,2]",0.4674460612344242,0.0023587617270495495,0.15362031126574152,0.16176452495770435,0.3636600565440895,0.4660138591481803,0.5694323471622393,0.7686669872558753,4241.5943976692515,1.0009262382574622
"pred_beta[37,2]",0.4609124890476226,0.0023968131107218655,0.1559061175246036,0.1485440341272306,0.3565819584853519,0.45894633499542337,0.564460834823462,0.7625363952499602,4231.145596029707,1.0008899429747276
"pred_beta[38,2]",0.45390139314549016,0.0024295779751191274,0.15838763506449127,0.14008971471186055,0.34731341471403987,0.45350772718734467,0.5576360199905002,0.7637201271410874,4249.921073417509,1.0008376664640044
"pred_beta[39,2]",0.4464421673748515,0.00246684797625222,0.16080520639780277,0.12754178328615762,0.3377737565492453,0.4444631663061859,0.5544033488503008,0.7618389623379774,4249.280881205091,1.0007778466538497
"pred_beta[40,2]",0.43866558884594486,0.002518053976569774,0.16398248578261565,0.10855736597772364,0.3298493593096842,0.43758943728874655,0.5497045158818564,0.7638852416805972,4240.966680260844,1.0006989132301634
"pred_beta[41,2]",0.43071433624130934,0.0025937617398565775,0.16860677064116963,0.09756216176295196,0.3189632867573683,0.42821605062107815,0.5419279399392185,0.7660451231310372,4225.614373890242,1.0005953101799132
"pred_beta[42,2]",0.42273108824348393,0.002693866008331471,0.1746978861681668,0.08266805154021684,0.30823517181969096,0.41834592937504234,0.5357123190944642,0.769856582241178,4205.55502431041,1.0004750593798797
"pred_beta[43,2]",0.41485852353500763,0.002807222292689957,0.18156505742035695,0.06505822896573288,0.29758499070971955,0.4116913518680527,0.5316374610485819,0.7835183313384388,4183.222209671578,1.0003539336455671
"pred_beta[44,2]",0.4072393207984195,0.002916157892814874,0.18810790353455936,0.04494438523284936,0.28686403474357125,0.40468783919070017,0.52987105489623,0.7874048410257746,4160.945399083889,1.0002453156107665
"pred_beta[45,2]",0.39999670682516514,0.003008115445869085,0.1933514966109394,0.03389186873963813,0.27448656271695093,0.39550799893817307,0.5226595607943485,0.7942687568407114,4131.48401455234,1.0001534449882798
"pred_beta[46,2]",0.3929296609410336,0.003081501961908599,0.19745130164070368,0.024808077005979423,0.26397294079203026,0.3868749087358315,0.5177903941143909,0.7961162317171268,4105.774612104311,1.0000663782233925
"pred_beta[47,2]",0.38556941176570697,0.0031409246656001993,0.20130054838027503,0.011624753909798008,0.25392285091213224,0.3773067653370329,0.5117953091355861,0.8036414525056248,4107.474499243255,0.9999679131694811
"pred_beta[48,2]",0.37743916536779953,0.003210879583108117,0.20548232506256922,-0.006936826421611908,0.245061287601219,0.36804306513859264,0.5031678572937652,0.804920550495672,4095.443181844539,0.9998510057187993
"pred_beta[49,2]",0.368062127815926,0.003283190925911693,0.20999510396179025,-0.026590262386304936,0.23187963278374013,0.35679625825442185,0.49496636337376665,0.809585501459086,4090.9677978761333,0.9997186095429845
"pred_beta[50,2]",0.3569615051787005,0.003335629184038108,0.21431293891668354,-0.041003263092322606,0.21801739999536168,0.34862975589030687,0.48580189936946966,0.8050426408785962,4128.01487905477,0.9995805262039363
"pred_beta[51,2]",0.3436605035247377,0.0033611586679824198,0.21772369015245155,-0.06360347113968079,0.2032518047404015,0.3381614083564818,0.4738954889744563,0.7953241860292092,4195.97936870661,0.9994498171200572
"pred_beta[52,2]",0.32780476798700203,0.003364870790289443,0.22004607172000695,-0.09127190077207428,0.18550369962041435,0.3237478828789323,0.45750170092522197,0.7836897913350618,4276.519488891949,0.9993427345571141
"pred_beta[53,2]",0.3096478781687144,0.0033787767553776927,0.2225423597719612,-0.123920541142366,0.1682239816938836,0.3078550202945831,0.4446643774433554,0.7549372123230824,4338.168157087142,0.9992803899825077
"pred_beta[54,2]",0.28963174196690145,0.0034396040931246436,0.22666405042310886,-0.16829362989394367,0.14958862748536367,0.290240859689654,0.4295625830263562,0.7408799794393743,4342.585483585505,0.9992845184225131
"pred_beta[55,2]",0.2681983240503623,0.0035713969057276,0.23315082101864432,-0.22027366403060233,0.12347860795226812,0.27277486282602936,0.41580466209149447,0.7225838624431542,4261.84511286697,0.9993681324710479
"pred_beta[56,2]",0.24578958908789672,0.0037780596602964146,0.2417836597846469,-0.27630121712627165,0.10124843597146556,0.2550442504061356,0.39862907322945196,0.6965082564035956,4095.588083374747,0.9995307643503035
"pred_beta[57,2]",0.22284750174830453,0.004044771353501235,0.2515636287285702,-0.33249448490945244,0.07665732281970292,0.23629102506797817,0.3860179579530055,0.6831489147430978,3868.1895597381767,0.9997644870111158
"pred_beta[58,2]",0.1998140603799064,0.004346590721163616,0.2612092042898896,-0.3817754750187292,0.05141941389904555,0.21787867712747214,0.370167710869425,0.6655127873013797,3611.4321113648216,1.0000643520717498
"pred_beta[59,2]",0.1771342656641693,0.00466216586721217,0.2701966455556062,-0.43450736988166166,0.030209725346939817,0.19921902518723214,0.3551987608980727,0.6430697282757982,3358.8024793932286,1.0004246072738963
"pred_beta[60,2]",0.1552584463206221,0.004995310839146575,0.2791223945205508,-0.4901720337977721,0.004821762566554547,0.17752288844599734,0.3410065099092558,0.6383868668557753,3122.2259467005397,1.00081798639211
"pred_beta[61,2]",0.13463747842351922,0.00530263054255904,0.2883963156539974,-0.5371190511266416,-0.01763584629604708,0.16094390387843233,0.3257658962053325,0.6378344696858671,2957.9898384389426,1.001201537476698
"pred_beta[62,2]",0.11572223804711516,0.0055788123287987415,0.2978350066300799,-0.5702806189609917,-0.03911545003153271,0.14260268916014307,0.31630615066379153,0.633321849953253,2850.1517270879694,1.0015305563620251
"pred_beta[63,2]",0.09896360126566381,0.005804374594475856,0.30664222388299983,-0.621453021854022,-0.06359015611457536,0.12708826112893115,0.3062724071375986,0.6292992084993312,2790.9563659475557,1.001771299343123
"pred_beta[64,2]",0.08481244415341978,0.005958267883588466,0.31361646682863853,-0.6539161917679586,-0.08284763713026597,0.11348973799633583,0.29632861381785136,0.6241503789458309,2770.49687867239,1.0019047241187593
"pred_beta[65,2]",0.07369673743708594,0.006023048279167064,0.3175639728470015,-0.6705143456572169,-0.09754362394583155,0.10098632599504764,0.28713599277870894,0.6183963491972555,2779.9037811168882,1.001922133754297
"pred_beta[66,2]",0.06570443548446465,0.005999079565272733,0.31841301668063543,-0.6751857598670435,-0.10677421130259622,0.09301250983984044,0.2809791470466845,0.6162626886761728,2817.165639166685,1.0018355927906029
"pred_beta[67,2]",0.06066312932324917,0.005899984685092304,0.31702306700832705,-0.6522900576911141,-0.11313065144492541,0.08470648283775249,0.2748790177291223,0.6137339284634676,2887.2205337942405,1.001669637984311
"pred_beta[68,2]",0.058393791868955956,0.005733054211608548,0.31426394763392085,-0.6299473149663399,-0.11749502743765357,0.07956530836514861,0.26920563300437483,0.6187726165021419,3004.8100715827286,1.0014496320867412
"pred_beta[69,2]",0.05871739603710141,0.0055240432791921305,0.3107611488389975,-0.6110355706120554,-0.11637113812339163,0.07623064139004362,0.2677989455923551,0.6245313566857824,3164.749148135018,1.0012033957394142
"pred_beta[70,2]",0.06145491474320205,0.005292530228923078,0.30682416179368593,-0.5860976372811217,-0.11602195816856545,0.07755830174315226,0.26704573730340847,0.6295987261832103,3360.87545092645,1.0009588032939478
"pred_beta[71,2]",0.06642732090277423,0.005051497059717125,0.30256256504416296,-0.5535086576886349,-0.11668271802797367,0.07854752216223754,0.26776595335967346,0.6379279032802896,3587.485691782899,1.000738996861182
"pred_beta[72,2]",0.073367890431157,0.004843721221958278,0.2983645483321183,-0.5308344670887835,-0.1133445283454573,0.082515796958373,0.26804246014854777,0.6459804360842389,3794.339254446906,1.0005550701820725
"pred_beta[73,2]",0.08161063179089838,0.0046922668023590165,0.2956167929309946,-0.5089640082655853,-0.10814163756640277,0.08986441552079186,0.2686289544617512,0.6622344286116075,3969.1069921178573,1.0003985204882282
"pred_beta[74,2]",0.090375987185204,0.0046300210984598165,0.2956483807544675,-0.499310308919476,-0.10017681714573906,0.09593312103311061,0.2770354677873964,0.677362893503126,4077.4164374973984,1.0002640978322166
"pred_beta[75,2]",0.09888439080186734,0.0046667486369335875,0.2989702741993734,-0.4936187745021931,-0.09820728056371553,0.09959542483218148,0.2857817963912264,0.706761600080998,4104.187571693802,1.0001546459699304
"pred_beta[76,2]",0.10635627682868251,0.004784505941455205,0.3050619916333032,-0.49271731048126277,-0.09603980726592581,0.1063099434050486,0.30039980424068796,0.7302188823448549,4065.3880485495692,1.0000763482711412
"pred_beta[77,2]",0.11201207945344353,0.004944391011637681,0.3125648270185635,-0.4873828275455496,-0.09736145914396406,0.11063752035075693,0.30743079780851734,0.7462634669092814,3996.267893587397,1.0000338492062217
"pred_beta[78,2]",0.11507786671652608,0.005100052425484038,0.31979016522648823,-0.48689400885619405,-0.10125443258124013,0.11189320424811461,0.31463671537965576,0.7648383530425283,3931.7050105762482,1.0000283252045947
"pred_beta[79,2]",0.11517677427244756,0.005220710585806244,0.32579892737394367,-0.49825317166809174,-0.1054439275829015,0.11286500813346874,0.3199640750085477,0.7853514778994174,3894.3955783242454,1.0000551481999729
"pred_beta[80,2]",0.11258397664654925,0.005305196445787543,0.33098694398831086,-0.5067413670373258,-0.11041912828390427,0.11079627183883296,0.324336380504875,0.7973401006297881,3892.411850757647,1.000103857833278
"pred_beta[81,2]",0.10763524280994304,0.005362778065501243,0.336042150739814,-0.5345405081946757,-0.11833450696093822,0.102113978329227,0.321049217569649,0.7979479892506853,3926.5204390705353,1.0001642227826233
"pred_beta[82,2]",0.10066634173374124,0.005405024297132945,0.3415060380383941,-0.5561213856104468,-0.13007609052495844,0.09605890918187493,0.32061795506178237,0.7999935111517269,3992.1005572186746,1.0002276751170993
"pred_beta[83,2]",0.09201304238905575,0.005442149981827952,0.34761322993226534,-0.5780564565944444,-0.14397207026327621,0.0879160690529592,0.31909541048429346,0.7993591203886026,4079.919377750515,1.0002882749659188
"pred_beta[84,2]",0.08201111374699836,0.005481922055492292,0.3543302337928927,-0.6072371590467166,-0.1521969675508539,0.07941079887887956,0.3159040565688626,0.8007806551655055,4177.829470320502,1.0003430298082976
"pred_beta[85,2]",0.07100343980522027,0.005519701013373468,0.36160003308830607,-0.6376653267849259,-0.1628686561886173,0.06642772914744777,0.30895937603458323,0.7967965234983506,4291.665010197327,1.0003907366855174
"pred_beta[86,2]",0.059427406350387575,0.005572116025064114,0.36987904227601937,-0.6709198974746211,-0.18250358227249586,0.05788540026872768,0.3046648834228695,0.7981022560201092,4406.351587848579,1.0004277729676203
"pred_beta[87,2]",0.04778747740236943,0.005653709839117549,0.37981148543952353,-0.6935026791112959,-0.20495278680854082,0.04982414944309735,0.2967259659565368,0.8101002386576017,4513.039718058206,1.0004481909327452
"pred_beta[88,2]",0.03658954450146895,0.005767356693805798,0.3916753034725259,-0.7404363595595342,-0.22732664657443127,0.04213743818879501,0.29588306156517985,0.818867416914342,4612.10040275715,1.0004471825505243
"pred_beta[89,2]",0.02633949918798891,0.00590727696789782,0.4053204186749951,-0.7818859651793661,-0.2440435381533145,0.02864140258327763,0.29454215407487505,0.8282252291670934,4707.846540827882,1.0004220917167888
"pred_beta[90,2]",0.017543233002232244,0.006062770451694697,0.4203537394446644,-0.8130705964550593,-0.25587337626125084,0.019905686893640778,0.2913957823786063,0.8519960229569965,4807.148959351979,1.0003716463201624
"pred_beta[91,2]",0.010706637484501763,0.006225265570799246,0.4365035586191226,-0.8531807404320243,-0.27429740308821543,0.00978630181854509,0.2915320923103697,0.8906046370441435,4916.5426492579545,1.0002942968852526
"pred_beta[92,2]",0.0061582829766988105,0.006411272886948358,0.45409538827346424,-0.8893050389934535,-0.29185965941412007,0.0033589125801185976,0.29600798253377014,0.9248212561877915,5016.555920169186,1.0001885701000304
"pred_beta[93,2]",0.0034862101116103755,0.006634454829973698,0.4739341482669549,-0.9211848694681849,-0.30432089174760574,0.0003466240291503664,0.30244257026151905,0.969950831571472,5102.999440588495,1.0000601896068926
"pred_beta[94,2]",0.0020851748222167413,0.006895110027194392,0.49647980082626403,-0.951546250092099,-0.3190198698917972,-0.004572000340566373,0.30602644040012805,1.0500390086789544,5184.665791321863,0.9999202734691202
"pred_beta[95,2]",0.0013499324922251511,0.007203905483352494,0.522352825210306,-0.9949975550158239,-0.33613941582113194,-0.007057135159718286,0.3113119198193651,1.1046800254633544,5257.652563611012,0.9997796833461674
"pred_beta[96,2]",0.0006752385053428434,0.0075898006380632965,0.553844976675593,-1.0514228288773058,-0.3484234698006554,-0.009243386910796056,0.31472043710959097,1.2245671637252091,5324.952097973912,0.9996455100648025
"pred_beta[97,2]",-0.0005441517547229191,0.00812505008470237,0.5968146626692253,-1.1352978019413245,-0.36625033384991795,-0.018974880117310466,0.33115652900911835,1.3129336190395127,5395.4400998552865,0.9995219059043637
"pred_beta[98,2]",-0.42170574592331744,0.009533291272734588,0.6474937482436216,-1.6088057849782802,-0.8468842694949044,-0.45238428292447463,-0.042992107738688196,0.9466904673360239,4613.021029136525,0.9995146898347492
"pred_beta[99,2]",-0.42789631369440134,0.009673238347859507,0.6569988450287721,-1.6324227770128892,-0.8593163848152546,-0.4590252063387038,-0.0436232244809924,0.9605877204632041,4613.021029136536,0.9995146898347492
"pred_beta[100,2]",-0.43408688146548513,0.009813185422984448,0.6665039418139228,-1.656039769047498,-0.8717485001356051,-0.4656661297529329,-0.044254341223296606,0.9744849735903843,4613.021029136527,0.9995146898347492
"pred_beta[101,2]",-0.022619672828034666,0.00884520218047956,0.6507701656206116,-1.2339645502191756,-0.4170230228519467,-0.052148345591212286,0.3341666726478635,1.3836681769219308,5413.021357092262,0.9994340526985123
lp__,-2864.2832929517913,0.24115392706259572,7.272909065339922,-2879.3045836637366,-2869.0814252353634,-2864.046776277778,-2858.989997437883,-2851.0526983098543,909.5522194196083,1.0013353200912287
