,Genotype,Experiment,Microtubule Angle,Microtubule Angle
,,,mean,std
0,siMCRS1,Experiement 1,71.5,8.84473921405859
1,siMCRS1,Experiement 2,78.79166666666667,4.2526632746475705
2,siScramble,Experiement 1,80.81132075471699,8.320633767867928
3,siScramble,Experiement 2,91.98076923076923,12.53464279446834
