"Estimate"	"Std. Error"	"t value"
"Control mean"	1.14533823788905	0.0325476893939887	35.1895406160715
"siScramble vs Control"	-0.0990973546530121	0.0550304508975153	-1.80077308175366
"siMCRS1 vs siScramble"	-0.0563109808788311	0.0442688764048052	-1.27202191363318
