Group	Total ends	Matching	Matching Open	Matching Open %	Matching Closed	Matching Closed %	Filtered	Removed Undef	% removed Undef
Control	1511	809	521	64.40049443757727	209	25.834363411619282	1084	427	28.25943084050298
siMCRS1	6654	3799	1876	49.381416162147936	509	13.398262700710713	3115	3539	53.18605350165314
siScramble	1155	476	278	58.40336134453782	59	12.394957983193278	564	591	51.16883116883116
