	mean	95CI_lower	95CI_upper	Distance
% Open siScramble	77.05218241080685	47.22635652073658	92.87219021430778	D = 0
% Open siMCRS1	79.56714200715393	51.70053053621176	93.72418212812251	D = 0
% Open WT	65.45292738827335	33.14415751498769	87.10217407528125	D = 0
log2(OR) siScramble	0.9048661274423837	0.21697525244962432	1.6133658763309426	D = 0
OR siScramble	1.929003661046001	1.162294170186194	3.05964840308698	D = 0
log2(OR) siMCRS1	0.22149001208169541	-0.4096184217287127	0.8469625437893242	D = 0
OR siMCRS1	1.1954941155355603	0.7528224618142869	1.79870992658102	D = 0
log2(OR) siMCRS1vsControl	1.126356139524079	0.5738079505383571	1.684170250804666	D = 0
OR siMCRS1vsControl	2.2247127429436424	1.4884472184284718	3.2135551979203796	D = 0
% Open siScramble	77.10629749592472	46.96816473821565	93.13217354573084	D < 0.2
% Open siMCRS1	80.763120761653	53.16373050113421	94.31396215649046	D < 0.2
% Open WT	64.03522871980358	32.9943879684659	86.21940366621709	D < 0.2
log2(OR) siScramble	1.0163621513141923	0.13074060010832464	1.890460243605558	D < 0.2
OR siScramble	2.1245962398770533	1.0948555984510817	3.7075349068473087	D < 0.2
log2(OR) siMCRS1	0.3334688975487893	-0.5441315103011191	1.1753196224200928	D < 0.2
OR siMCRS1	1.3188057903765502	0.6858042650787866	2.258430216332535	D < 0.2
log2(OR) siMCRS1vsControl	1.3498310488629817	0.5602811722806498	2.1399099916717232	D < 0.2
OR siMCRS1vsControl	2.65191093179332	1.4745566198150122	4.407345485010209	D < 0.2
% Open siScramble	74.5667400684037	39.51182871416032	93.70228203662931	D > 0.2
% Open siMCRS1	79.80827252890859	52.49209804496622	93.75313159993358	D > 0.2
% Open WT	75.7983150288939	44.18982709401744	93.17306437437195	D > 0.2
log2(OR) siScramble	-0.07265284487218841	-1.2509338068999143	1.147697776685347	D > 0.2
OR siScramble	1.0430844143435143	0.420176185312484	2.215600593576842	D > 0.2
log2(OR) siMCRS1	0.41453319259344446	-0.8018870412040913	1.6123808903067474	D > 0.2
OR siMCRS1	1.4584942709842872	0.5735984273327818	3.057560172215325	D > 0.2
log2(OR) siMCRS1vsControl	0.34188034772125603	-0.5176987178425451	1.1058973142611843	D > 0.2
OR siMCRS1vsControl	1.3214851119604314	0.6984851255596587	2.152327127853961	D > 0.2
