,mean,se_mean,sd,2.5%,25%,50%,75%,97.5%,n_eff,Rhat
pred_alpha[1],0.6309162775726201,0.013781646586458272,0.7995814495237987,-0.943349756278866,0.10904229478364802,0.6427985325662628,1.146881993550212,2.224629419394529,3366.070456536089,0.9998644267031378
pred_alpha[2],0.6770997921679591,0.013489996854293914,0.7663482232224859,-0.8450091259410214,0.1701416105397977,0.6901122905927894,1.1727418520374302,2.2049692625044415,3227.2203011984716,0.9998033168464181
pred_alpha[3],0.709381177693771,0.013764223644533499,0.7693215946756573,-0.8267464174615398,0.20452378315039463,0.709856817099014,1.2101367513613985,2.248210705964658,3124.009927006028,0.9997478251672335
pred_alpha[4],0.7293398942968973,0.014186453063412015,0.7828683264017393,-0.8317912653726534,0.21551054223866062,0.7192120456394984,1.2366307363526565,2.2958685340295966,3045.297977760658,0.9997352805487579
pred_alpha[5],0.7385554021241787,0.014539754155164971,0.7932485590805366,-0.8328551415112863,0.22675756556203747,0.7238553772752105,1.2451200404558582,2.350189453025121,2976.490200780647,0.9997690019641481
pred_alpha[6],0.7386071613224569,0.014747166570590442,0.7955363488462316,-0.8593553221104098,0.2205309173326993,0.7241801169982354,1.2348744723980285,2.368595032868509,2910.066303992661,0.9998408383007832
pred_alpha[7],0.7310746320385719,0.014809183671809738,0.7898296053565493,-0.8627765751531333,0.22041388356333816,0.7246207450950068,1.2298517274088012,2.334550235965331,2844.4910909582677,0.9999401769963203
pred_alpha[8],0.7175372744193654,0.014762980092760034,0.7786304296233009,-0.838333782041057,0.21904945575805385,0.7133173569498888,1.2116394345084067,2.2639008098012074,2781.7280925990895,1.00005410884766
pred_alpha[9],0.6995745486116784,0.014657510821420862,0.7651584437652537,-0.8595741883126189,0.20727413101179665,0.7010865074864254,1.1872792691630223,2.2006714781408236,2725.0991194472026,1.0001662754280058
pred_alpha[10],0.6787659147623516,0.014538061495682443,0.7522166983592399,-0.8620544243989585,0.19804401964532098,0.6908403997146129,1.165659114199586,2.123791218233786,2677.1514279363064,1.0002579082783372
pred_alpha[11],0.6566908330182262,0.014437842110808018,0.7414997836336664,-0.8719369291897014,0.180448059445765,0.6754053814485874,1.1368801975001865,2.0582489149022765,2637.6519080343555,1.0003118091396075
pred_alpha[12],0.6345788661228785,0.014371311412834455,0.7332709950904764,-0.8706235471732056,0.1625224310637715,0.6626009888799584,1.113092183709176,2.03845228943956,2603.371898871908,1.0003191000047515
pred_alpha[13],0.6122599872068268,0.014327557737442213,0.7266742944306223,-0.8807430563158484,0.14613942567104724,0.6419075454450553,1.0867945757008945,2.006094572021668,2572.3808078228626,1.000285527576823
pred_alpha[14],0.5892142719973247,0.014297374046229067,0.7211850972909231,-0.8935426837810696,0.1293678218184512,0.6248581779951797,1.0606325133577643,1.9556090042390326,2544.373882750953,1.0002216082054503
pred_alpha[15],0.5649217962216257,0.014276461286332894,0.7166652751445498,-0.9144141989981429,0.10370137471214111,0.6036449815080522,1.0421522328662742,1.8997553817585788,2519.9480049673994,1.0001389558135552
pred_alpha[16],0.5388626356069833,0.014262200372829903,0.7131382814253764,-0.944335838726611,0.08104620384973463,0.5829280281808775,1.0210008345619195,1.8579184827748003,2500.1981695896407,1.0000494274598175
pred_alpha[17],0.5105168658806515,0.014251528513146197,0.7106178430991575,-0.9754983838749034,0.05718712336325696,0.5557769975447333,0.9978501740522893,1.8099054492065223,2486.2759220302764,0.9999642983930288
pred_alpha[18],0.4793645627698836,0.01423996702251777,0.7089980777622232,-1.0374230394186739,0.029021591755913713,0.5216601566445492,0.9587856284487094,1.763540890387302,2478.9750076829055,0.9998933713998811
pred_alpha[19],0.4448858020019331,0.014221811183339888,0.7080102493597011,-1.0602409105385435,-0.0051346082319852935,0.4875998938535339,0.9308948229188976,1.7226716149643866,2478.387857158765,0.9998442054047215
pred_alpha[20],0.406560659304054,0.014191478356042439,0.7072482357348804,-1.0897253848630348,-0.04230533372917794,0.45568750466993463,0.8961614014025343,1.662496265432688,2483.6389789016903,0.9998217209711677
pred_alpha[21],0.36386921040349945,0.01414602734930394,0.7062617318396601,-1.1260546703798358,-0.07876992214508827,0.4211980174644252,0.8460153760042848,1.6067262853615858,2492.656089661991,0.9998283065544844
pred_alpha[22],0.31665366768317466,0.014091356319440848,0.704794828732747,-1.180777185316173,-0.11587954264942638,0.37728005612716986,0.7944949364322584,1.5420576563994564,2501.611266704752,0.9998634642040253
pred_alpha[23],0.26620479014858983,0.01404914965394671,0.7031503386160104,-1.234457834691972,-0.16183743942871315,0.3330814579980992,0.744550044414372,1.4844247358182443,2504.9340894541415,0.9999222531920089
pred_alpha[24],0.21417547346090646,0.01404064074664042,0.7018300291642844,-1.291750954182645,-0.21029356835964605,0.27942819259446183,0.6925550912142759,1.4135859646836795,2498.561468043523,0.9999986870210865
pred_alpha[25],0.16221861328128664,0.01407856398347722,0.7012733269242057,-1.3487843127911,-0.25853865774384055,0.22500140271619407,0.6440582630409788,1.3678166415282762,2481.178010668329,1.0000865432337391
pred_alpha[26],0.11198710527089142,0.014164239851077294,0.701728229214531,-1.4082961630455428,-0.30861407287174336,0.17424345346004053,0.5993833082529918,1.3194496609086825,2454.4339576098682,1.0001795277482521
pred_alpha[27],0.06513384509088266,0.014287035687335277,0.7031813495470053,-1.45665119646119,-0.35695072545949863,0.1263216083754393,0.5553178461937371,1.2712037951440012,2422.4254904168633,1.0002717502166387
pred_alpha[28],0.023311728402422082,0.014426216993712602,0.7053511792807752,-1.5033385107231028,-0.40083581126451406,0.0825524698397278,0.5174067331650894,1.2309007507763896,2390.5942620340547,1.000358296856677
pred_alpha[29],-0.011826349133328612,0.014554756277142313,0.7077442571124645,-1.5422972250392235,-0.4418814148752711,0.050488560119561265,0.48347832748761005,1.2013605408878496,2364.5191361132393,1.0004356343910192
pred_alpha[30],-0.03862749185520812,0.014644526950489614,0.709769434083138,-1.5852693593508955,-0.4710855025528639,0.023914257596831287,0.458996924842032,1.1860825743789893,2349.0047241889065,1.0005016617127451
pred_alpha[31],-0.055438804102054554,0.014672600027663128,0.7109048412059074,-1.6096681484178017,-0.48795782607003924,0.0024588485573019507,0.4453193592703134,1.1806465205336751,2347.517214538611,1.0005553739271804
pred_alpha[32],-0.06121775553682594,0.014632726120962329,0.7109932984507947,-1.6060549285326666,-0.4931007513046522,-0.0030533297617114084,0.44146788186688335,1.1726885409467644,2360.9159512575234,1.000596537940382
pred_alpha[33],-0.05736327711895848,0.01455046761789822,0.7105889618622958,-1.6003116145234924,-0.4855964040909147,0.0014033078464202597,0.44142627389884415,1.1740664660037088,2384.9705047488105,1.0006258297498045
pred_alpha[34],-0.04588466513200788,0.014463082363949832,0.7104999992884173,-1.5916023611068444,-0.47643385009384953,0.014285394978797182,0.4516029975901752,1.1970524773291036,2413.272949112314,1.0006436172456996
pred_alpha[35],-0.028791215859530057,0.014406374586836272,0.7114636930238712,-1.5721074270657245,-0.4618714320710118,0.02844714971692014,0.47339477830098375,1.2109157799612764,2438.9117101467273,1.0006500864090317
pred_alpha[36],-0.00809222558508047,0.014407127707280521,0.7139667466183088,-1.5617245076409265,-0.44434158524433254,0.054840535277392535,0.4898852558405895,1.2280379798508254,2455.8461583534677,1.0006456929099867
pred_alpha[37],0.014203009407784887,0.014477499635937452,0.718134194265859,-1.5384305657841653,-0.4248253372229932,0.07785126709368678,0.5055108296198919,1.2623744294228256,2460.5040674670454,1.0006314058987265
pred_alpha[38],0.03608519283551028,0.014612375275315944,0.7236957688661244,-1.5169974835879225,-0.419193580054139,0.09789711281294389,0.5282109963456256,1.303580167852004,2452.8468488445224,1.0006086595267143
pred_alpha[39],0.05554502841454009,0.014790262980011088,0.7300310392924824,-1.5045792806818505,-0.4092205204380951,0.11118478657582773,0.545609892815652,1.3603799839923658,2436.300527900312,1.0005790396678702
pred_alpha[40],0.07057321986131847,0.014977377152996746,0.7362844494195007,-1.5021823615476015,-0.38940282578441343,0.1284307361083662,0.5610930257919022,1.4042452217052488,2416.6832055438263,1.0005438276436516
pred_alpha[41],0.07916047089228971,0.01513385710662664,0.7415365022378707,-1.50826600648687,-0.38825394485856385,0.1367804846584444,0.5668596904119061,1.4180412065338692,2400.854328393964,1.0005035368511155
pred_alpha[42],0.07972088708956304,0.01522597087544939,0.7451599062643239,-1.5231854559617797,-0.3973791595905615,0.13340815273445553,0.5714180642205152,1.447220903069745,2395.1293317725062,1.0004577820845546
pred_alpha[43],0.07236218149790805,0.015247835580470236,0.747390053024358,-1.5052724912964257,-0.404278980068705,0.12697944314163281,0.5676370035446678,1.4493698614985022,2402.582041674304,1.0004061969478513
pred_alpha[44],0.05761546902775935,0.015208007994373239,0.7487916335458689,-1.5209874135819264,-0.4199888863340616,0.10938878941373675,0.5552448118406283,1.4381796882080864,2424.249430323091,1.0003485940550143
pred_alpha[45],0.036011864589551454,0.015121064401641533,0.7499459737481691,-1.5746424239644243,-0.44617892024132755,0.09038944829346977,0.528879310777589,1.4269867602894586,2459.774129541353,1.00028533732222
pred_alpha[46],0.008082483093718994,0.015004610499408133,0.7513248299743005,-1.6183199717349184,-0.47328545445597897,0.06192204836168155,0.49629302073590137,1.4016180751282574,2507.2984439966526,1.0002176769774156
pred_alpha[47],-0.0256415605493035,0.01487708157810618,0.753210658116199,-1.6425766690785095,-0.500619206876298,0.02455299890214087,0.4647494321668149,1.3650181017876366,2563.2881193426656,1.0001478405460444
pred_alpha[48],-0.06462915142908134,0.014756160450049736,0.7556652860702677,-1.6831931413923753,-0.5370705753451298,-0.01492230313871044,0.43158555834769313,1.3327205705950234,2622.4801293382893,1.0000789042117997
pred_alpha[49],-0.10834917463517958,0.014657788824012911,0.7585488867195672,-1.7253886515651446,-0.5893278505482158,-0.05806800651740564,0.3860824135576383,1.2892522241418103,2678.121213847386,1.0000145237091886
pred_alpha[50],-0.15627051525716446,0.014595845215015075,0.7615887794483457,-1.8017404197443088,-0.6377668471600675,-0.1071533569083733,0.3444825921501796,1.2551882659786453,2722.592072132201,0.9999586448655406
pred_alpha[51],-0.20786205838460098,0.014582595863773425,0.7644954443988101,-1.8634926067044237,-0.6874761837857672,-0.15759257144792843,0.297777783555884,1.2038764303609497,2748.401161629928,0.9999153028597236
pred_alpha[52],-0.2624874660807945,0.014631352256223655,0.7672272903294157,-1.9109285906770734,-0.7447067189212879,-0.21247657609568021,0.248889123257396,1.1582614009311512,2749.660988898725,0.999888049380028
pred_alpha[53],-0.3190895083040099,0.014759574851712053,0.7703695351372671,-1.9892873847796302,-0.8012244273142147,-0.26507839167459546,0.20248228008769542,1.0989425576235092,2724.2722347994513,0.999878247203023
pred_alpha[54],-0.37650573198625226,0.014978704639520817,0.7746089010889717,-2.057767283359368,-0.8618932533750727,-0.3267527948420581,0.14350491691761308,1.0558407518371329,2674.3389654369007,0.9998860272194227
pred_alpha[55],-0.4335736840595267,0.015288984767764927,0.7804316010570721,-2.133420842485061,-0.9203488339059211,-0.3770896666202097,0.10248264045770492,0.9805634883748048,2605.6279064757114,0.9999103985162805
pred_alpha[56],-0.48913091145583737,0.01567835889948108,0.7879983910996585,-2.202704605955489,-0.9819167377307108,-0.430179342944062,0.0584448327423962,0.8969365722240811,2526.093712432856,0.9999491137778059
pred_alpha[57],-0.5420149611071904,0.01615875082360023,0.7970889742129383,-2.2897763830024855,-1.0436421402887146,-0.48695562019897876,0.019180313329328,0.8492628439961368,2433.3133321090827,0.9999988681338955
pred_alpha[58],-0.5910633799455902,0.016660800528884703,0.8071162809752966,-2.3705282390869558,-1.0997178781540873,-0.5351911647479273,-0.01555601346197271,0.820989306403327,2346.8238119466914,1.0000557667635799
pred_alpha[59],-0.6351137149030419,0.017145381499140255,0.8172024086074671,-2.448515983339697,-1.1535974831954803,-0.5740023584213447,-0.052120715397564917,0.7837088288277327,2271.773190321425,1.0001158620063684
pred_alpha[60],-0.6730035129115501,0.017572414378975817,0.8263023393543256,-2.500061179469184,-1.19894039481688,-0.6140786422035608,-0.08111527685198258,0.7641732544650874,2211.134153321116,1.0001755433479307
pred_alpha[61],-0.7035703209031201,0.0179040304071328,0.8333630265414051,-2.5336484809055593,-1.2228220816465596,-0.650029409978303,-0.10473393433708739,0.7546998697716261,2166.540656495733,1.0002316473349704
pred_alpha[62],-0.7259164867753977,0.018112608273358713,0.8376739686653301,-2.554299128299881,-1.240767439316779,-0.6741196434776298,-0.11956541805795415,0.7419958918117917,2138.8880301814083,1.0002815016863313
pred_alpha[63],-0.7402035622885953,0.018197681417984085,0.8394815478064417,-2.5772564719036684,-1.2581610109705719,-0.680071177432749,-0.1358805728500655,0.7354938384052088,2128.0909940071,1.0003232274412635
pred_alpha[64],-0.7468579001685657,0.018174903963454607,0.8393989651728394,-2.582588981061187,-1.2656138757213866,-0.6954913208137032,-0.14314939234668583,0.7233495234326086,2133.008614911093,1.000354865727884
pred_alpha[65],-0.7463058531411623,0.01805155282356848,0.8380844753651356,-2.5771823816981296,-1.2610238828233715,-0.694861237896623,-0.1469036008433553,0.7409875379767652,2155.492214984898,1.0003744042449676
pred_alpha[66],-0.7389737739322377,0.017838634316341577,0.8361249706302439,-2.57110417896999,-1.256565882777355,-0.6864950149976459,-0.1510350933845539,0.7528498435734943,2196.944986372744,1.0003801478517345
pred_alpha[67],-0.7252880152676454,0.01756989671253429,0.833961391361856,-2.5327766951087947,-1.2503071383693332,-0.6738238657887282,-0.1352124936016808,0.7672278599630209,2252.9599608716467,1.0003710877505685
pred_alpha[68],-0.7056749298732382,0.017259039689314082,0.8318566818035716,-2.51817386568447,-1.2418994558344332,-0.6567786179896056,-0.12231438935682998,0.7911360141312882,2323.0778495584286,1.000347184992522
pred_alpha[69],-0.6805608704748697,0.016955496903580017,0.8299091818659671,-2.4776280937549324,-1.2179004595598828,-0.6370772289420651,-0.09266392114952349,0.8193234643984477,2395.7422684719336,1.0003095050362214
pred_alpha[70],-0.6503721897983924,0.016658100429147872,0.8281140848295165,-2.4499054514776866,-1.1816882478569157,-0.6056981874641234,-0.07245344629869067,0.8585832230640836,2471.322314198314,1.0002601951404864
pred_alpha[71],-0.6155352405696597,0.01638508046597235,0.8264743802444194,-2.3654923363322644,-1.1487283614075265,-0.5695605397953423,-0.046124377136322,0.8873766196832137,2544.2608424108857,1.0002023623987855
pred_alpha[72],-0.5766963692052883,0.016166282693825734,0.8252680634368365,-2.3269880179030915,-1.1019623254656292,-0.5257629258284526,-0.02400307009719054,0.9327834966774287,2605.9719700020146,1.000140447457598
pred_alpha[73],-0.5353818968849493,0.01604147931059239,0.8253795188167948,-2.2740842685991303,-1.054562811478443,-0.49272276769907075,0.013623963741386701,0.9960319923469259,2647.3937849344657,1.0000810204802475
pred_alpha[74],-0.493338138479078,0.01603915615379509,0.827649446770741,-2.2097873706772955,-1.0103902524461035,-0.4489701201969432,0.05129362453064312,1.0609388044877615,2662.7465273590296,1.000029773088326
pred_alpha[75],-0.4523114088581093,0.016166805935785424,0.8325289795480642,-2.1795478202279934,-0.9685318968311538,-0.4103646280875843,0.08946098977089563,1.1186333549816168,2651.8580265453916,0.9999900387736389
pred_alpha[76],-0.41404802289247733,0.016408947908397382,0.8399527653509804,-2.150617405467579,-0.9449280996685381,-0.36867853363802455,0.125279391835175,1.1891356700323423,2620.283341809872,0.9999622098907762
pred_alpha[77],-0.38029429545261745,0.016729783943727775,0.8493147393713065,-2.1368017894245375,-0.9169044321394728,-0.3439381499408116,0.16160936428457784,1.2565862178657055,2577.250648244071,0.9999437767272465
pred_alpha[78],-0.35279654140896444,0.017079309497406322,0.859542332316145,-2.1267557716216836,-0.8970037778601914,-0.3265295309598878,0.19874294450351426,1.315351404309451,2532.759330215993,0.9999300134109119
pred_alpha[79],-0.33330107563195327,0.01740084672981475,0.8692490300166547,-2.1327077820346716,-0.8887031986864464,-0.31000789306281673,0.2184771941450115,1.350587848916342,2495.443067701703,0.99991501462068
pred_alpha[80],-0.32355421299201875,0.01766082524477547,0.8769407500275729,-2.144724339822769,-0.8791446613851759,-0.2980558041976072,0.23234552928205568,1.3669898449383342,2465.576696684063,0.9998927169514719
pred_alpha[81],-0.32530226835959586,0.017793998758310052,0.8812616891415407,-2.154844661780131,-0.8871953119659906,-0.30197855036018145,0.22834815513754653,1.383032531729023,2452.803003272133,0.9998577395993944
pred_alpha[82],-0.3397817802686505,0.017743965180380208,0.8815212967792839,-2.1584910160140893,-0.9000716943722908,-0.3094983657861151,0.2268209636180299,1.3792984218851445,2468.1085966776814,0.999806901696715
pred_alpha[83],-0.36619018190727504,0.01753781137002085,0.878578573506898,-2.1827226209299813,-0.9265644943737172,-0.3365285179713341,0.2011834577828731,1.3376168395338068,2509.6342107121395,0.9997421199797529
pred_alpha[84],-0.40321513012709237,0.01723546695056311,0.8739034681565485,-2.2319645336219986,-0.9624122997307174,-0.37016384857638296,0.16200762542267366,1.2826412541340835,2570.8741517576445,0.9996681493018363
pred_alpha[85],-0.4495442817797254,0.016934897547327334,0.8690647633739332,-2.2652962840552906,-0.9956663806296349,-0.40540449821205893,0.11778844170586203,1.215560445124961,2633.535251511936,0.9995911777416435
pred_alpha[86],-0.5038652937167988,0.016665714733390066,0.8655161771006511,-2.3229237309719304,-1.0548035463016439,-0.4508665948587256,0.0684355795115983,1.1497829458805364,2697.13380033376,0.9995179027953973
pred_alpha[87],-0.5648658227899339,0.016485740967413696,0.8644352445222288,-2.3824678025031583,-1.114375689483036,-0.5134303392230439,0.008661077376741391,1.0639202334758486,2749.4636833633313,0.9994542996907798
pred_alpha[88],-0.631233525850756,0.01644294179916704,0.8666285385062324,-2.471048248981492,-1.17994039719773,-0.5747448908630964,-0.05224188304851107,0.969407002493587,2777.8381223793012,0.9994043093163082
pred_alpha[89],-0.7016560597508859,0.01656883609120259,0.8725225002818001,-2.560392363585293,-1.254556321011432,-0.6419606873634387,-0.11237116631691474,0.9174221221990582,2773.1238570608275,0.9993689160969816
pred_alpha[90],-0.7748210813419498,0.01687454171532738,0.8822520591211475,-2.6567821123435786,-1.3308940763605686,-0.71463468468342,-0.17102951723071508,0.8613356176641755,2733.5145343231056,0.9993460445580008
pred_alpha[91],-0.8494162474755678,0.01735122824962152,0.8958439261501467,-2.7648410473780904,-1.418676424608881,-0.7896155130661775,-0.23149238842575154,0.7901408761426362,2665.6569691655413,0.9993313882025283
pred_alpha[92],-0.9243546955895745,0.018011968939022373,0.913450693228679,-2.8874926833578547,-1.5037033759873295,-0.8592647266833038,-0.29355633062506326,0.7473338587897913,2571.863060275612,0.9993216491759596
pred_alpha[93],-0.9994514854666436,0.018811282336831513,0.935246985025853,-3.0057111347842485,-1.5935039938291968,-0.9304863524565015,-0.350904639949699,0.6901700376085246,2471.8142415789316,0.9993209445705553
pred_alpha[94],-1.0747471574756542,0.0197338941737787,0.9610295704713434,-3.1456021700335093,-1.684772603577186,-1.0033913607083473,-0.4048562071913311,0.6589313312004788,2371.6353338563745,0.9993352286089265
pred_alpha[95],-1.1502822519854907,0.020765831698788536,0.9902867274737632,-3.2600184202761437,-1.7777997723643737,-1.0817044728282386,-0.4610738107728126,0.6363623006905679,2274.1717323941702,0.9993703708304291
pred_alpha[96],-1.2260973093650327,0.021951100974472604,1.022705866740039,-3.4233611912622726,-1.8741505522047746,-1.157157423610689,-0.5135159376501716,0.6165769219586004,2170.645386665372,0.999433118197967
pred_alpha[97],-1.302232869983164,0.023262051500028618,1.05899465175835,-3.579594107890977,-1.9747790305127575,-1.2250753057066568,-0.5516849809198043,0.5993529792909542,2072.485533925052,0.9995323218342437
pred_alpha[98],-1.3787294742087672,0.024700395969712872,1.10189836894201,-3.7687803087233678,-2.0862813530221125,-1.2995996337432296,-0.5904894267321597,0.5676439797053427,1990.1016030077365,0.9996788401454196
pred_alpha[99],-1.4556276624107216,0.026318678416782103,1.157236920600622,-3.955295744707316,-2.1856042734052052,-1.3668826831038572,-0.6245982359536353,0.5632999858057306,1933.3763725501847,0.9998819371911277
pred_alpha[100],-1.5329679749579126,0.02820668768140117,1.2346052117833817,-4.193074775926622,-2.3152985218348197,-1.4435476097976006,-0.6454255006823579,0.6235790094614322,1915.8082197978247,1.000140640976401
pred_alpha[101],-1.610790952219218,0.03049378178472599,1.347161985198054,-4.6088484714407665,-2.4439723067825296,-1.4909807207904358,-0.6514295204133453,0.6960497955235316,1951.7179760833517,1.000433525148413
"pred_beta[1,1]",0.8145631508094366,0.012024137531807269,0.5898062047864149,-0.437318283757629,0.46047696098919505,0.8331308671030861,1.1764257085654224,1.9181267780806661,2406.0841042530124,0.9999285219593869
"pred_beta[2,1]",0.835837468555651,0.010828077682699682,0.5429788128281567,-0.2994422836722078,0.49908265352837095,0.8482180597279885,1.1782226273386143,1.8882570085408976,2514.566014864857,0.9997618381995595
"pred_beta[3,1]",0.8524004267828343,0.010018257771270214,0.5177875699215556,-0.18535825996705685,0.526395425103805,0.8562593300534393,1.1729284685464698,1.8716616724510509,2671.276460132094,0.9996023952593646
"pred_beta[4,1]",0.8646751039741891,0.009468362277290508,0.5035499317178522,-0.12900584014040042,0.5433729820042805,0.8604485792211403,1.1827968808441396,1.8629610835864394,2828.3643192191203,0.9994776471978393
"pred_beta[5,1]",0.8730845786129167,0.00909315387997626,0.4929350048144935,-0.08423888143610145,0.5519940036007605,0.8668900674823632,1.1830340049981212,1.8646738808419303,2938.666069573588,0.9993902445087602
"pred_beta[6,1]",0.8780519291822191,0.008767607920142965,0.4820033546622587,-0.06039409690988158,0.5623064006173739,0.8681387050728466,1.177175611200858,1.8577565557759033,3022.302157211676,0.999331602051761
"pred_beta[7,1]",0.8800002341652975,0.008490178553956411,0.469306162270212,-0.009696406324923084,0.5710849244198186,0.864703378092408,1.1724493369996767,1.8456779972035808,3055.475923512523,0.9992922532788096
"pred_beta[8,1]",0.879352572045354,0.008235393072745303,0.45488705054349543,0.01698849373487588,0.5803776533348943,0.8648074597615398,1.1585465510567383,1.8334820039952184,3050.973827139077,0.9992654433775178
"pred_beta[9,1]",0.8765320213055904,0.00799226624322012,0.4394704742518779,0.04024790614134014,0.5880733116728788,0.8621894196116728,1.1485186115942292,1.7938374902387375,3023.566458409526,0.9992474604144518
"pred_beta[10,1]",0.8719616604292082,0.007756851501791354,0.42386225543541567,0.07379804168647701,0.5909180143049267,0.8602352883090898,1.134888555941157,1.7634291569045502,2985.922523785034,0.9992370623313638
"pred_beta[11,1]",0.8660645678994096,0.0075378832115373705,0.40856169640178697,0.10053485774884616,0.5919233976295397,0.8582360453477471,1.1186495907366618,1.7246522374415587,2937.7611778249016,0.9992348110777816
"pred_beta[12,1]",0.8592104020086656,0.007302831299802102,0.3936105187474911,0.12491391642252257,0.5956001502259354,0.8487231743360433,1.1020254478199143,1.6835542099689018,2905.031562356651,0.9992419720533396
"pred_beta[13,1]",0.8515551402865283,0.0070163179130622744,0.3788529345316383,0.14004810354391126,0.5962377715906003,0.8423752011192164,1.0863243832569738,1.648803502277965,2915.56543788424,0.9992584106248875
"pred_beta[14,1]",0.8432013400718192,0.0067566967156809064,0.36437658897954284,0.16325280203515188,0.5945335947444566,0.8361339920688899,1.07056558527943,1.6153561766910178,2908.252306145976,0.9992841433573172
"pred_beta[15,1]",0.8342515587033597,0.006520695912731719,0.35045967002687506,0.18371126108394512,0.596513046873099,0.8282052095930313,1.0576822777183057,1.5752840240955066,2888.6052750451963,0.9993196122996301
"pred_beta[16,1]",0.824808353519971,0.0062934345399337874,0.3374431243210436,0.1974429055346586,0.5979510002813115,0.8204300121448345,1.0390767682233282,1.5462475412115966,2874.9197626769683,0.999365226926244
"pred_beta[17,1]",0.8149742818604753,0.0060786955249843245,0.3256151931834242,0.21449404009187775,0.5963859271328109,0.8076152864601222,1.0225993754895966,1.5056794206077182,2869.3831289652303,0.9994208739079975
"pred_beta[18,1]",0.8048519010636936,0.0058784788065210656,0.31511739996209603,0.21319913213758673,0.5943746111118322,0.7969699306316682,1.0081953980541722,1.4723743432387255,2873.5241756792834,0.999485562473694
"pred_beta[19,1]",0.7945437684684478,0.005692301835526583,0.3058873140217202,0.22495738660133008,0.5892216722807739,0.7873461450107951,0.9942291386045015,1.434157186872625,2887.6668736534616,0.9995573827096882
"pred_beta[20,1]",0.7841524414135592,0.005517127835100428,0.29765518554560205,0.23211080333173953,0.58436226745528,0.7783260516250821,0.9785347735549725,1.4137416796547995,2910.7225602732237,0.9996338271761441
"pred_beta[21,1]",0.7737804772378494,0.005348082377115174,0.2900069687501086,0.23451611991531476,0.5775716647435596,0.7650679837120287,0.9631667157866246,1.3789579748265515,2940.496668083896,0.9997122863084089
"pred_beta[22,1]",0.7635205069767453,0.005181622736547799,0.2825923518842736,0.23498383397609912,0.5713032122540538,0.7551762767392878,0.9496258348207982,1.3467416217780055,2974.3305258946757,0.9997910726003921
"pred_beta[23,1]",0.7534254564520957,0.005022187461501684,0.27551471543873274,0.23765563683937807,0.5638995043307298,0.7465364879036762,0.9370691463759186,1.3153825689306262,3009.5652294989964,0.9998713258141988
"pred_beta[24,1]",0.7435383251823541,0.004877455196759,0.26911922558166723,0.23763508568946626,0.5568100274255494,0.7367420303141847,0.9220024900898331,1.29046662558647,3044.4081176830396,0.9999540206375527
"pred_beta[25,1]",0.7339021126859752,0.004755036770329903,0.26379129319250716,0.2308486174380468,0.5525919882478741,0.7257293354137258,0.9114694589541052,1.2659151667629276,3077.6069537494736,1.0000387350415845
"pred_beta[26,1]",0.724559818481412,0.004660731419671294,0.25983292148865555,0.23341962923796983,0.5490974243211715,0.7181438954517763,0.8972100033818327,1.2564472982961217,3107.99419561998,1.0001236854764235
"pred_beta[27,1]",0.7155544420871195,0.004597157970522961,0.2573681901816321,0.23029444828396786,0.5435289641451917,0.707479821305089,0.8868838419513358,1.236413144760378,3134.2301364171285,1.000206380516076
"pred_beta[28,1]",0.706928983021551,0.004563074419457815,0.2562951877842273,0.22038074965510973,0.5361554356718324,0.6987705832058003,0.8786545151493894,1.2191157944715685,3154.7561837778544,1.000284735920731
"pred_beta[29,1]",0.6987264408031608,0.004553629375150306,0.25629715994684565,0.2036137028025323,0.5256327945797339,0.6921025678917392,0.8682325290416402,1.2055735026454797,3167.9055696877285,1.0003581874132532
"pred_beta[30,1]",0.6909898149504027,0.004561574791876157,0.25691305431590616,0.1853533742907717,0.5164936827906935,0.6849986123023137,0.8591411256206527,1.199510487769552,3172.069868640859,1.0004283174398811
"pred_beta[31,1]",0.6837621049817307,0.0045792629657609215,0.25765666080289434,0.1824247638932513,0.5120194187883307,0.6801730946293572,0.8512031085680842,1.1933766981963903,3165.8590888183676,1.0004988219333917
"pred_beta[32,1]",0.6770579839990273,0.004602058606524066,0.2582557954950196,0.16722562466895463,0.5075449052877714,0.6751345797028542,0.8462837513016028,1.1872549609331402,3149.1682370920935,1.0005734631344447
"pred_beta[33,1]",0.6707788194378875,0.004632557980958674,0.2589984611458548,0.1592299498418422,0.49908659152134116,0.6706647176671185,0.8387156853728868,1.1854212615683144,3125.738486298635,1.0006502780562552
"pred_beta[34,1]",0.6647976523173346,0.004676086919287588,0.2603567158664011,0.1586529367406797,0.49152885111116223,0.6626969507321258,0.8384169017378246,1.1887995460381977,3100.0765569848236,1.0007247582024108
"pred_beta[35,1]",0.6589875236563926,0.004783571191994287,0.262740932889733,0.14543686981393877,0.48158436877471045,0.6542013319058572,0.8369548192238956,1.186653230593733,3016.831066151677,1.0007918044818613
"pred_beta[36,1]",0.6532214744740847,0.004883131273921701,0.2663833566765907,0.13968895736003265,0.4731967405127736,0.6465656912845459,0.8317526029329322,1.191570293067636,2975.8934326301232,1.0008469149848513
"pred_beta[37,1]",0.6473725457894345,0.004998036305868692,0.27127637504270513,0.12572523393540788,0.46395957971713453,0.6423463752765219,0.825819446357746,1.1993114211952836,2945.948388482824,1.000887385826271
"pred_beta[38,1]",0.6413137786214657,0.005132391353226676,0.27717182335734164,0.1120694020479659,0.4573594180458849,0.6348683895323474,0.8235051530656945,1.2106530332837804,2916.47748714389,1.0009128877065634
"pred_beta[39,1]",0.6349182139892016,0.005265588838787613,0.2836356809626556,0.09994712634359448,0.4447191142481128,0.63026068951881,0.8168465071842674,1.208997442772731,2901.5351650389193,1.0009251535176877
"pred_beta[40,1]",0.6280588929116656,0.005387438369134739,0.2901424946105007,0.06970937205002192,0.4330093023121757,0.6247929829801676,0.8143523914558971,1.2146359337234565,2900.401035552275,1.000927037829358
"pred_beta[41,1]",0.6206088564078815,0.005488275145114335,0.29619358950221897,0.05131552133050965,0.4198306391647021,0.6158355601264126,0.8113969018092506,1.2312031961402448,2912.591368074467,1.0009214285872006
"pred_beta[42,1]",0.6124456959907495,0.005562432815477011,0.3015344924845896,0.035752813141360106,0.40708694522501154,0.6073248776503075,0.8059614604013535,1.2319830944728916,2938.626829739348,1.0009103775017045
"pred_beta[43,1]",0.6034652051486764,0.00561429296577714,0.30645763820946087,0.012915181870573594,0.39955968295924427,0.5946373451003255,0.8014235842701665,1.229035531450529,2979.5505500833992,1.000894925695805
"pred_beta[44,1]",0.593567727863946,0.005651439519502355,0.3114046492216161,-0.009956021030263997,0.38916496513013576,0.5828226133006367,0.7949878020953105,1.23031269852294,3036.2114658207706,1.0008758082416163
"pred_beta[45,1]",0.5826536081188417,0.005678218757053801,0.3167495765347791,-0.03089617067740631,0.3726290603698046,0.5712422215087252,0.7871437071639362,1.2314205120690653,3111.7725535024606,1.0008542223881256
"pred_beta[46,1]",0.5706231898956473,0.005702572094852229,0.3227182006382179,-0.0618668868382523,0.3628495934916839,0.5587736343278678,0.7792646464413079,1.2405135926806765,3202.619544644578,1.0008320975485276
"pred_beta[47,1]",0.5573768171766467,0.005764616656023611,0.3293531377318299,-0.09025437531957739,0.3468112067913923,0.5478758120260991,0.7654304222751517,1.2440730828558353,3264.2449892694917,1.0008119039721322
"pred_beta[48,1]",0.5428148339441232,0.005857581835805349,0.3365237841466472,-0.12075971670617838,0.3285824689499899,0.53261439600007,0.7536586630660482,1.240772447674035,3300.614460527309,1.0007961622831039
"pred_beta[49,1]",0.5268375841803608,0.005964334602091469,0.34397609129873485,-0.16271810146957738,0.3112795537080615,0.5187957707238374,0.7434981677742254,1.232455967995282,3326.078654691635,1.0007868556695374
"pred_beta[50,1]",0.5093454118676427,0.006081150374370301,0.35141394593488406,-0.20469272659444832,0.2917282705900409,0.5017458846671636,0.7315220849135285,1.2242506181110757,3339.3850582051095,1.000784882432365
"pred_beta[51,1]",0.4902386609882528,0.0062168378378436515,0.3586045214205725,-0.23624129637292368,0.267913350832635,0.48577487235564976,0.7138318825034555,1.211930331485228,3327.303704662364,1.0007895504863338
"pred_beta[52,1]",0.4695013286092527,0.006378948912803275,0.36558014912592335,-0.26701958338271503,0.24774706095839427,0.4665281155206902,0.7032179223172654,1.198139745171934,3284.482583414876,1.000797979848065
"pred_beta[53,1]",0.44745202413681595,0.006579151404231201,0.3728731289897953,-0.3064076528388354,0.2182766023255847,0.44870731527425933,0.6845666425283876,1.1766653071591096,3212.0508553316827,1.0008056014111217
"pred_beta[54,1]",0.424493010061894,0.00682538077049983,0.38105269817653337,-0.36656573558878686,0.18649788709738724,0.4298601794143223,0.666947745514262,1.171252972033046,3116.852949880264,1.0008085589636315
"pred_beta[55,1]",0.40102654887543826,0.007118546575429494,0.3904912065686857,-0.4266677017751389,0.15798980859680478,0.41075955830254923,0.6549917880855751,1.1504283827508155,3009.122411014343,1.0008048856019525
"pred_beta[56,1]",0.37745490306840046,0.007452081675790663,0.4012818664860893,-0.4917590848449951,0.13322600751827535,0.39000933249136593,0.6381261221762595,1.1266878835726506,2899.6384992943194,1.0007949599215678
"pred_beta[57,1]",0.35418033513173175,0.00781293875364047,0.4132171229153364,-0.5524932472286993,0.10531507403561585,0.3733002478202071,0.6236861269821578,1.1165016048099123,2797.2274367292484,1.0007813468898767
"pred_beta[58,1]",0.3316051075563837,0.008194641063834024,0.42582127603051756,-0.6242780622048101,0.07942415503665146,0.3516751117232009,0.6080311704725505,1.1131782206460243,2700.1932220497797,1.000768157691766
"pred_beta[59,1]",0.3101314828333077,0.008582637656849261,0.43842226926493194,-0.6785585973702404,0.055367057466605384,0.33665863203302304,0.5979786298350107,1.0983556142222737,2609.4180108682754,1.0007602810544847
"pred_beta[60,1]",0.2901617234534554,0.008939154958091854,0.45024532384914384,-0.7308932883424761,0.030810499795230775,0.3185463649992377,0.584181046097646,1.081045110828792,2536.9125131221676,1.0007628171991134
"pred_beta[61,1]",0.2720980919077783,0.009243350884253182,0.46051644168435724,-0.7627822200756504,0.011110123415057526,0.3053098991584908,0.5742424275430781,1.07566831592616,2482.1693101234105,1.0007808495484274
"pred_beta[62,1]",0.25626402952284605,0.009480205158485962,0.46870244239117853,-0.8050313078621802,-0.007944471228150719,0.29335618002152086,0.5634832231547235,1.0790335326372829,2444.3250664620236,1.0008175906394843
"pred_beta[63,1]",0.2426676929677015,0.00965095806748568,0.47496462789497185,-0.825675165093084,-0.025286930691386655,0.28004160056521754,0.5531594608515649,1.0774870608799147,2422.042044290191,1.0008688672245638
"pred_beta[64,1]",0.23123841774700588,0.00976237403335264,0.4796920020064352,-0.8274308363306588,-0.04106565250698253,0.267057837501722,0.5472551741007128,1.0830265427722594,2414.4269423732803,1.0009288314647078
"pred_beta[65,1]",0.2219055393654205,0.009822091122166487,0.4832744520909384,-0.8293312393159848,-0.05842341360324212,0.2557302901168126,0.5421112708174047,1.0801148471077024,2420.9161993524003,1.0009917536292572
"pred_beta[66,1]",0.2145983933276066,0.00981013590413305,0.4860371177719254,-0.8290409519686547,-0.07382508969329671,0.24836471466513932,0.5383931575168042,1.0831309567295957,2454.6457581229984,1.0010520570020651
"pred_beta[67,1]",0.2092463151382254,0.00975757157119281,0.4882011858728862,-0.8400694904005843,-0.08215478730176885,0.23908098764148836,0.5338777384118134,1.089460188190682,2503.3073185488993,1.0011044813955938
"pred_beta[68,1]",0.20577864030193793,0.009704012496465414,0.48986964751649525,-0.8330531214729466,-0.09119485074233163,0.23434897847288844,0.5352837631873033,1.0927888915758242,2548.345850697214,1.0011442724899824
"pred_beta[69,1]",0.2041247043234056,0.009650348732245495,0.4910381109078112,-0.8356163512704808,-0.096065144203795,0.2260802237345752,0.5375518490957133,1.0891739910420783,2589.0735343863735,1.0011672724299019
"pred_beta[70,1]",0.20421384270728954,0.00958489045874619,0.49163096955654045,-0.8437150575660801,-0.09849126284756438,0.2214373573484687,0.544519681639944,1.1011571053065556,2630.8988906654677,1.0011698148304942
"pred_beta[71,1]",0.20597539095825101,0.009543663861070141,0.49156323884246783,-0.8219446985852001,-0.1000533949928949,0.21972796595333796,0.5445789652487241,1.1191205262211015,2652.946701646031,1.0011483936572865
"pred_beta[72,1]",0.20928007638452673,0.00950594889964316,0.49091888921522553,-0.7986678439493191,-0.1032006326065104,0.21979804792192387,0.543927524082845,1.132704348562004,2667.0338945249605,1.0011005836731144
"pred_beta[73,1]",0.2137641935086554,0.00947632340894829,0.490260335219507,-0.7871392172756779,-0.10235559233134639,0.2192365967177558,0.543161459328588,1.1453093909367213,2676.540182508898,1.0010290520698193
"pred_beta[74,1]",0.21900542865675135,0.009460306845312981,0.49024040544706504,-0.777553409913769,-0.09962592905516537,0.21974586119065667,0.5459728482505384,1.1463102050090268,2685.3924256417517,1.00093795898293
"pred_beta[75,1]",0.2245814681549287,0.009469937536040737,0.4913935829867948,-0.7740421684066886,-0.0979615035367509,0.22703718057558464,0.55406029876979,1.1573222981809388,2692.555927351348,1.0008322265680065
"pred_beta[76,1]",0.23006999832930186,0.009512315385422564,0.4940531840548024,-0.7589160311824381,-0.09341238283371983,0.23188734311209083,0.5582129932642028,1.1694000623839154,2697.583663906376,1.000717654716724
"pred_beta[77,1]",0.23504870550598508,0.009602005619427785,0.4983076533376833,-0.7534436704044435,-0.09648669099866676,0.2392046052026423,0.5643305193229993,1.1918541551321777,2693.2161074619535,1.0006004836615805
"pred_beta[78,1]",0.23909527601109265,0.009728440294298975,0.5040020715918142,-0.7579508375166979,-0.10041338156631097,0.24045175083683068,0.5710735579307561,1.2283378313479774,2683.973399559851,1.0004866608614875
"pred_beta[79,1]",0.24178739617073863,0.009873423969818804,0.5107845205704257,-0.771391746498292,-0.10351315494093828,0.2389719384778291,0.5815186738795227,1.2484807749839484,2676.331356044629,1.0003811925702402
"pred_beta[80,1]",0.2427027523110375,0.01003234910159881,0.5181902835005749,-0.7803664110561597,-0.10618957979630966,0.2379199130981815,0.5853972842080781,1.2743786242334512,2667.9227991449725,1.0002878876435461
"pred_beta[81,1]",0.24141903075810342,0.010193711234052464,0.5257541394454762,-0.8018261022149101,-0.1106830721685946,0.2347678139868859,0.5852800586524962,1.30231948250815,2660.1170564480394,1.0002095934555832
"pred_beta[82,1]",0.23762365733342786,0.010351816654367364,0.5331951890695429,-0.8062840393283957,-0.11775526301701023,0.23513387273070235,0.5811464766056789,1.312429212859024,2653.012532665875,1.0001478605879655
"pred_beta[83,1]",0.23144301584000979,0.01051143751661814,0.540656972648175,-0.8362380771697101,-0.12737884145575684,0.23069791821925062,0.5823886387544932,1.3276237718833506,2645.5708120213285,1.000101067978322
"pred_beta[84,1]",0.22311322957622576,0.010682426261888079,0.548462585382162,-0.8572369585964117,-0.14309686384308234,0.2248243031087515,0.5813543517495574,1.3373150137075893,2636.053411989181,1.0000679292997767
"pred_beta[85,1]",0.21287042184045224,0.010875546577970388,0.5569462886881219,-0.8890171986186051,-0.15936765436947092,0.21464411366319844,0.5796952052254863,1.3448310337901894,2622.5540227090155,1.0000480414941688
"pred_beta[86,1]",0.2009507159310651,0.011100132345370987,0.5663775295941457,-0.9161093152146007,-0.17286344519604127,0.2055558369328874,0.5712342977766791,1.3568757882862543,2603.4888138818546,1.0000413416805156
"pred_beta[87,1]",0.18759023514644121,0.01135744309829858,0.5769234032412374,-0.951541948419301,-0.1989591331834702,0.19077879062011727,0.5663564730697429,1.3503655791071867,2580.329539362781,1.0000476502826772
"pred_beta[88,1]",0.17302510278495645,0.01160365924500711,0.5886477292649659,-0.9905168163895339,-0.22730854593869987,0.17444689048957768,0.5600088847401297,1.3468711042730903,2573.481274854034,1.0000663562813537
"pred_beta[89,1]",0.1574914421449876,0.011871986518336604,0.6015436101443543,-1.0353930750799818,-0.2456423630391082,0.16105885737346226,0.552520569465786,1.3348564480482858,2567.363994725541,1.000096251712176
"pred_beta[90,1]",0.14122537652491052,0.012151041391085514,0.6155945665054856,-1.08272849802973,-0.26752577921252285,0.14405994697220323,0.5514294829046292,1.3400795494429714,2566.6257989112146,1.0001354731299212
"pred_beta[91,1]",0.12446302922310204,0.012428361719620099,0.630858219096397,-1.1561368630345732,-0.2891079862903984,0.13185926072819917,0.5441736084651462,1.3430507011950383,2576.5333127542453,1.000181479664437
"pred_beta[92,1]",0.10738334377456163,0.012707043965569837,0.647586230184487,-1.2245760460907247,-0.31387383337455105,0.11385517695566098,0.5425771794111937,1.3611908322890072,2597.2044970790835,1.0002318699673156
"pred_beta[93,1]",0.0899365446607822,0.013012498140537891,0.6662101880445083,-1.3068553143297161,-0.3387715451244249,0.0975167918222834,0.5352343093508131,1.3801370992799877,2621.2061534773416,1.0002866217313793
"pred_beta[94,1]",0.07201567659988109,0.013331471226180922,0.6869978912144644,-1.3720842465026009,-0.3619001275698537,0.08416910725394638,0.5302581346103998,1.3901264363787458,2655.551013034209,1.000345277094204
"pred_beta[95,1]",0.053513784309974284,0.013677462241852657,0.7100528256977267,-1.4642612023073638,-0.3886621792613874,0.0724720642054692,0.5233750237589014,1.4061860244363276,2695.071373375041,1.0004065427578386
"pred_beta[96,1]",0.03432391250917904,0.014120005521052683,0.7355440250767866,-1.5494709622320415,-0.4141240138587324,0.05559827172126053,0.5119573895300176,1.432364657186751,2713.6111242701204,1.0004685807610953
"pred_beta[97,1]",0.014339105915611834,0.014654372416354552,0.7640678580875431,-1.6604593428585657,-0.4400231554582821,0.04296950243103864,0.510759710104696,1.455116223458085,2718.5004731722624,1.0005288886452302
"pred_beta[98,1]",-0.006547590752611166,0.015262303398969654,0.7970868464885523,-1.7528661668234076,-0.46879075760101646,0.031126100026453662,0.5086010242468636,1.4657571610072124,2727.5399455917704,1.0005838181125388
"pred_beta[99,1]",-0.028443132777372596,0.015973246679625904,0.8373723479506957,-1.9085352487559168,-0.5053276634828534,0.009403572453430445,0.5037366288850391,1.5079381032148964,2748.2158079649535,1.000628067837321
"pred_beta[100,1]",-0.05145447544055647,0.016833428730136435,0.8893330459634154,-2.062627961182488,-0.5397670166463032,-0.007183457158497268,0.5137402510758599,1.5717914134592994,2791.1533067826495,1.0006548534673299
"pred_beta[101,1]",-0.07568857402404518,0.01790816018909792,0.9590562642200541,-2.256516653600734,-0.5775648778073514,-0.0219511394405508,0.5104084227569308,1.6632350913794536,2868.046786220348,1.0006576002652197
lp__,-844.4516126991721,1.0089631244034718,28.982310855023893,-902.6903162459307,-863.5607398803228,-844.1717897523378,-824.3361039507703,-788.6602817630182,825.1168054449358,1.0012368743706188
