,mean,se_mean,sd,2.5%,25%,50%,75%,97.5%,n_eff,Rhat
alpha,0.6096920029187575,0.019068318351617795,0.9783320471410042,-1.4386538856227942,0.006389202431791972,0.6485963594667574,1.2603714087020725,2.4533428878042094,2632.3750861702606,1.0009498785218285
beta[1],0.08768018255800307,0.006709317572948106,0.3460958420330832,-0.5802049284034202,-0.14683813988731653,0.08453030433087974,0.3140951912169504,0.7770117143264315,2660.946027398796,1.0000771080846127
beta[2],0.03642328059254663,0.007214934428488925,0.3575283347654618,-0.6625015903395983,-0.19628739168181775,0.04101171226487234,0.26747562970578126,0.7399224888999105,2455.5916919228084,1.0004705036423664
measure_sigma,1.9012785876181055,0.017249885611372775,0.9534208868624258,0.7131504107418958,1.231286109999084,1.6889405762827132,2.3307625484362235,4.338388484939543,3054.8992004809197,1.0004417793817169
sigma,2.28480426980262,0.010568968520372299,0.3160295110824487,1.7114694636863566,2.0635718162302803,2.2761064631366987,2.493415569904812,2.928135908382435,894.1081834151282,1.0025374786785926
lp__,-552.8975829447039,1.0189680012707776,26.08747737854484,-606.1499247022126,-570.4484629438726,-551.9994236395194,-534.7159599802437,-504.28781696582456,655.4552990532306,1.0043963993120721
