Group	Total ends	Matching	Matching Open	Matching Open %	Matching Closed	Matching Closed %	Filtered	Removed Undef	% removed Undef
siMCRS1	727	436	298	68.34862385321101	90	20.642201834862387	542	185	25.447042640990368
siScramble	386	209	106	50.717703349282296	64	30.62200956937799	262	124	32.12435233160622
