Group	Total ends	Matching	Matching Open	Matching Open %	Matching Closed	Matching Closed %	Filtered	Removed Undef	% removed Undef
siControl	386	209	106	50.717703349282296	64	30.62200956937799	262	124	32.12435233160622
siMCRS1	454	256	175	68.359375	61	23.828125	342	112	24.669603524229075
