	Coefficient	p-value	Average microtubules per fiber
Intercept	2.2319675257800915	4.331019403177853e-224	9.318181818181811
siScramble	0.09259647393273178	0.3618674847067067	10.222222222222245
siMCRS1	-0.46075121284470844	9.11355543522526e-06	6.448275862068979
