	mean	95CI_lower	95CI_upper
% Open siScramble	80.85868255621946	41.65597969128255	96.78189187802796
% Open siMCRS1	85.31676118492298	50.40323262216983	97.72436662147234
% Open WT	83.87665828635855	48.14761375967157	97.2624842617217
logOR siScramble	-0.23416521446360344	-0.621012205809811	0.1454070802602677
logOR siMCRS1	0.36901959508852483	-0.08277624475789785	0.8041852720872791
