Group	Total ends	Matching	Matching Open	Matching Open %	Matching Closed	Matching Closed %	Filtered	Removed Undef	% removed Undef
Control	159	126	121	96.03174603174604	1	0.7936507936507936	143	16	10.062893081761008
siMCRS1	847	720	692	96.11111111111111	2	0.2777777777777778	739	108	12.750885478158205
siScramble	273	239	229	95.81589958158996	1	0.41841004184100417	242	31	11.355311355311356
