Group	Total ends	Matching	Matching Open	Matching Open %	Matching Closed	Matching Closed %	Filtered	Removed Undef	% removed Undef
Control	1841	1575	1509	95.80952380952381	6	0.38095238095238093	1623	218	11.841390548614882
siMCRS1	847	720	692	96.11111111111111	2	0.2777777777777778	739	108	12.750885478158205
siScramble	432	365	350	95.8904109589041	2	0.547945205479452	385	47	10.87962962962963
